T:150238809:DecaRangeRTLS:LogFile:Ver.  2.10  TREK:Conf:Tag0:1:Chan5
T:150238850:AP:0:0:0:2.05
T:150238850:AP:1:6.04:0:2.05
T:150238850:AP:2:0:4.04:2.05
T:150238850:AP:3:5:5:3
T:150238851:RR:0:0:1339:1339:243:53319
T:150238851:RM:0:1:243:53319
T:150238952:RR:0:0:1765:1765:244:53320
T:150238952:RM:0:1:244:53320
T:150239048:RR:0:0:1733:1733:245:53321
T:150239048:RM:0:1:245:53321
T:150239150:RR:0:0:1709:1709:246:53322
T:150239150:RM:0:1:246:53322
T:150239250:RR:0:0:1747:1747:247:53323
T:150239250:RM:0:1:247:53323
T:150239350:RR:0:0:1742:1742:248:53324
T:150239350:RM:0:1:248:53324
T:150239450:RR:0:0:1747:1747:249:53325
T:150239450:RM:0:1:249:53325
T:150239550:RR:0:0:1691:1691:250:53326
T:150239550:RM:0:1:250:53326
T:150239651:RR:0:0:1723:1723:251:53327
T:150239651:RM:0:1:251:53327
T:150239750:RR:0:0:1335:1335:252:53328
T:150239750:RM:0:1:252:53328
T:150239848:RR:0:0:1723:1723:253:53329
T:150239848:RM:0:1:253:53329
T:150239949:RR:0:0:1765:1765:254:53330
T:150239949:RM:0:1:254:53330
T:150240050:RR:0:0:1704:1704:255:53331
T:150240050:RM:0:1:255:53331
T:150240148:RR:0:0:1321:1321:0:53332
T:150240148:RM:0:1:0:53332
T:150240250:RR:0:0:1709:1709:1:53333
T:150240250:RM:0:1:1:53333
T:150240351:RR:0:0:1302:1302:2:53334
T:150240351:RM:0:1:2:53334
T:150240450:RR:0:0:1747:1747:3:53335
T:150240450:RM:0:1:3:53335
T:150240548:RR:0:0:1737:1737:4:53336
T:150240548:RM:0:1:4:53336
T:150240650:RR:0:0:1316:1316:5:53337
T:150240650:RM:0:1:5:53337
T:150240751:RR:0:0:1723:1723:6:53338
T:150240751:RM:0:1:6:53338
T:150240851:RR:0:0:1302:1302:7:53339
T:150240851:RM:0:1:7:53339
T:150240950:RR:0:0:1728:1728:8:53340
T:150240950:RM:0:1:8:53340
T:150241055:RR:0:0:1709:1709:9:53341
T:150241055:RM:0:1:9:53341
T:150241148:RR:0:0:1307:1307:10:53342
T:150241148:RM:0:1:10:53342
T:150241249:RR:0:0:1761:1761:11:53343
T:150241249:RM:0:1:11:53343
T:150241350:RR:0:0:1696:1696:12:53344
T:150241350:RM:0:1:12:53344
T:150241450:RR:0:0:1312:1312:13:53345
T:150241450:RM:0:1:13:53345
T:150241550:RR:0:0:1737:1737:14:53346
T:150241550:RM:0:1:14:53346
T:150241649:RR:0:0:1751:1751:15:53347
T:150241649:RM:0:1:15:53347
T:150241750:RR:0:0:1705:1705:16:53348
T:150241750:RM:0:1:16:53348
T:150241851:RR:0:0:1335:1335:17:53349
T:150241851:RM:0:1:17:53349
T:150241951:RR:0:0:1312:1312:18:53350
T:150241951:RM:0:1:18:53350
T:150242048:RR:0:0:1841:1841:19:53351
T:150242048:RM:0:1:19:53351
T:150242151:RR:0:0:1705:1705:20:53352
T:150242151:RM:0:1:20:53352
T:150242251:RR:0:0:1751:1751:21:53353
T:150242251:RM:0:1:21:53353
T:150242348:RR:0:0:1747:1747:22:53354
T:150242348:RM:0:1:22:53354
T:150242450:RR:0:0:1700:1700:23:53355
T:150242450:RM:0:1:23:53355
T:150242549:RR:0:0:1775:1775:24:53356
T:150242549:RM:0:1:24:53356
T:150242650:RR:0:0:1756:1756:25:53357
T:150242650:RM:0:1:25:53357
T:150242748:RR:0:0:1789:1789:26:53358
T:150242748:RM:0:1:26:53358
T:150242851:RR:0:0:1742:1742:27:53359
T:150242851:RM:0:1:27:53359
T:150242950:RR:0:0:1700:1700:28:53360
T:150242950:RM:0:1:28:53360
T:150243049:RR:0:0:1765:1765:29:53361
T:150243049:RM:0:1:29:53361
T:150243154:RR:0:0:1751:1751:30:53362
T:150243154:RM:0:1:30:53362
T:150243248:RR:0:0:1714:1714:31:53363
T:150243248:RM:0:1:31:53363
T:150243351:RR:0:0:1747:1747:32:53364
T:150243351:RM:0:1:32:53364
T:150243450:RR:0:0:1307:1307:33:53365
T:150243450:RM:0:1:33:53365
T:150243548:RR:0:0:1270:1270:34:53366
T:150243548:RM:0:1:34:53366
T:150243649:RR:0:0:1246:1246:35:53367
T:150243649:RM:0:1:35:53367
T:150243750:RR:0:0:1307:1307:36:53368
T:150243750:RM:0:1:36:53368
