1,0.942,0.946,0.955,0.0013,0.0358
2.2,2.1589,2.159,2.164,4.81E-04,0.0219
4.35,4.3136,4.313,4.308,0.0003519,0.0188
9.06,8.9782,8.979,8.979,0.0003247,0.018
14.99,15.0087,15.006,15.006,0.0002421,0.0156
23.59,23.359,23.357,23.352,0.0003744,0.0194
