<?xml version="1.0" encoding="UTF-8" standalone="no"?>
<!-- Created with Inkscape (http://www.inkscape.org/) -->

<svg
   xmlns:dc="http://purl.org/dc/elements/1.1/"
   xmlns:cc="http://creativecommons.org/ns#"
   xmlns:rdf="http://www.w3.org/1999/02/22-rdf-syntax-ns#"
   xmlns:svg="http://www.w3.org/2000/svg"
   xmlns="http://www.w3.org/2000/svg"
   xmlns:sodipodi="http://sodipodi.sourceforge.net/DTD/sodipodi-0.dtd"
   xmlns:inkscape="http://www.inkscape.org/namespaces/inkscape"
   width="210mm"
   height="297mm"
   viewBox="0 0 210 297"
   version="1.1"
   id="svg8"
   inkscape:version="0.92.3 (2405546, 2018-03-11)"
   sodipodi:docname="maly_trojkat.svg"
   enable-background="new">
  <defs
     id="defs2">
    <filter
       inkscape:collect="always"
       style="color-interpolation-filters:sRGB"
       id="filter5568">
      <feBlend
         inkscape:collect="always"
         mode="multiply"
         in2="BackgroundImage"
         id="feBlend5570" />
    </filter>
  </defs>
  <sodipodi:namedview
     id="base"
     pagecolor="#ffffff"
     bordercolor="#666666"
     borderopacity="1.0"
     inkscape:pageopacity="0.0"
     inkscape:pageshadow="2"
     inkscape:zoom="0.98994949"
     inkscape:cx="192.25898"
     inkscape:cy="628.64361"
     inkscape:document-units="mm"
     inkscape:current-layer="layer4"
     showgrid="false"
     inkscape:window-width="1920"
     inkscape:window-height="1017"
     inkscape:window-x="-8"
     inkscape:window-y="-8"
     inkscape:window-maximized="1" />
  <metadata
     id="metadata5">
    <rdf:RDF>
      <cc:Work
         rdf:about="">
        <dc:format>image/svg+xml</dc:format>
        <dc:type
           rdf:resource="http://purl.org/dc/dcmitype/StillImage" />
        <dc:title></dc:title>
      </cc:Work>
    </rdf:RDF>
  </metadata>
  <g
     inkscape:groupmode="layer"
     id="layer5"
     inkscape:label="trójkąt A0 A1 A2"
     style="display:inline;opacity:0.93999999;filter:url(#filter5568)">
    <path
       style="fill:#ffc505;fill-opacity:0.33888891;stroke:#f1dc00;stroke-width:0.26499999;stroke-linecap:butt;stroke-linejoin:miter;stroke-miterlimit:4;stroke-dasharray:none;stroke-opacity:1"
       d="M 54.251394,104.75186 91.8739,170.38106 135.15011,84.648251 Z"
       id="path5566"
       inkscape:connector-curvature="0" />
  </g>
  <g
     inkscape:label="linie_graniczne"
     inkscape:groupmode="layer"
     id="layer1"
     style="display:inline">
    <circle
       id="path4562-0"
       cx="135.1985"
       cy="84.567368"
       style="fill:none;stroke:#000000;stroke-width:0.32800001;stroke-miterlimit:4;stroke-dasharray:1.968, 1.968;stroke-dashoffset:0;stroke-opacity:1"
       r="57.164906" />
    <circle
       id="path4562-0-9"
       cx="135.1985"
       cy="84.567368"
       style="fill:none;stroke:#000000;stroke-width:0.26699999;stroke-miterlimit:4;stroke-dasharray:none;stroke-dashoffset:0;stroke-opacity:1"
       r="63.961002" />
    <circle
       id="path4562-0-9-3"
       cx="135.1985"
       cy="84.567368"
       style="fill:none;stroke:#000000;stroke-width:0.20966138;stroke-miterlimit:4;stroke-dasharray:none;stroke-dashoffset:0;stroke-opacity:1"
       r="50.225288" />
    <circle
       id="path4562-0-5"
       cx="54.050598"
       cy="104.98812"
       style="fill:none;stroke:#000000;stroke-width:0.30000001;stroke-miterlimit:4;stroke-dasharray:1.8, 1.8;stroke-dashoffset:0;stroke-opacity:1"
       r="39.635124" />
    <circle
       id="path4562-0-9-5"
       cx="54.050598"
       cy="104.98812"
       style="fill:none;stroke:#000000;stroke-width:0.2;stroke-miterlimit:4;stroke-dasharray:none;stroke-dashoffset:0;stroke-opacity:1"
       r="44.347179" />
    <circle
       id="path4562-0-9-3-5"
       cx="54.050598"
       cy="104.98812"
       style="fill:none;stroke:#000000;stroke-width:0.2;stroke-miterlimit:4;stroke-dasharray:none;stroke-dashoffset:0;stroke-opacity:1"
       r="34.823559" />
    <circle
       id="path4562-0-5-4"
       cx="91.856873"
       cy="170.38887"
       style="fill:none;stroke:#000000;stroke-width:0.38117811;stroke-miterlimit:4;stroke-dasharray:2.28706877, 2.28706877;stroke-dashoffset:0;stroke-opacity:1"
       r="50.360142" />
    <circle
       id="path4562-0-9-5-3"
       cx="91.856873"
       cy="170.38887"
       style="fill:none;stroke:#000000;stroke-width:0.25411877;stroke-miterlimit:4;stroke-dasharray:none;stroke-dashoffset:0;stroke-opacity:1"
       r="56.347248" />
    <circle
       id="path4562-0-9-3-5-0"
       cx="91.856873"
       cy="170.38887"
       style="fill:none;stroke:#000000;stroke-width:0.25411877;stroke-miterlimit:4;stroke-dasharray:none;stroke-dashoffset:0;stroke-opacity:1"
       r="44.246597" />
  </g>
  <g
     inkscape:groupmode="layer"
     id="layer2"
     inkscape:label="zielone_tło"
     style="display:inline">
    <path
       style="fill:#6cff00;fill-opacity:0.37878789;stroke:none;stroke-width:0.2;stroke-miterlimit:4;stroke-dasharray:none;stroke-dashoffset:0;stroke-opacity:1"
       d="M 54.03834,60.685997 A 44.34718,44.34718 0 0 0 9.6911766,105.03316 44.34718,44.34718 0 0 0 54.03834,149.38032 44.34718,44.34718 0 0 0 98.385504,105.03316 44.34718,44.34718 0 0 0 54.03834,60.685997 Z m 0,9.531717 A 34.823566,34.823566 0 0 1 88.862055,105.04143 34.823566,34.823566 0 0 1 54.03834,139.86514 34.823566,34.823566 0 0 1 19.214626,105.04143 34.823566,34.823566 0 0 1 54.03834,70.217714 Z"
       id="path4562-0-9-5-8"
       inkscape:connector-curvature="0" />
    <path
       style="fill:#6cff00;fill-opacity:0.37878789;stroke:none;stroke-width:0.25411877;stroke-miterlimit:4;stroke-dasharray:none;stroke-dashoffset:0;stroke-opacity:1"
       d="m 91.866004,113.92926 a 56.347248,56.347248 0 0 0 -56.346946,56.34695 56.347248,56.347248 0 0 0 56.346946,56.34746 56.347248,56.347248 0 0 0 56.347466,-56.34746 56.347248,56.347248 0 0 0 -56.347466,-56.34695 z m 0.189137,12.28969 a 44.246596,44.246596 0 0 1 44.246909,44.24639 44.246596,44.246596 0 0 1 -44.246909,44.2464 44.246596,44.246596 0 0 1 -44.246394,-44.2464 44.246596,44.246596 0 0 1 44.246394,-44.24639 z"
       id="path4562-0-9-5-3-8"
       inkscape:connector-curvature="0" />
    <path
       style="fill:#6cff00;fill-opacity:0.37878789;stroke:none;stroke-width:0.26699999;stroke-miterlimit:4;stroke-dasharray:none;stroke-dashoffset:0;stroke-opacity:1"
       d="M 135.20083,20.670869 A 63.961001,63.961001 0 0 0 71.239358,84.631823 63.961001,63.961001 0 0 0 135.20083,148.59277 63.961001,63.961001 0 0 0 199.16178,84.631823 63.961001,63.961001 0 0 0 135.20083,20.670869 Z m -0.26355,13.681335 A 50.225287,50.225287 0 0 1 185.16263,84.577562 50.225287,50.225287 0 0 1 134.93728,134.80292 50.225287,50.225287 0 0 1 84.712435,84.577562 50.225287,50.225287 0 0 1 134.93728,34.352204 Z"
       id="path4562-0-9-1"
       inkscape:connector-curvature="0" />
    <circle
       id="path3713-4-4"
       cx="90.525299"
       cy="120.39062"
       r="0.66145831"
       style="fill:#ff0000;fill-opacity:1;stroke:#000000;stroke-width:0.26458332;stroke-opacity:1" />
  </g>
  <g
     inkscape:groupmode="layer"
     id="layer3"
     inkscape:label="trójkąt_czerwony"
     style="display:inline">
    <path
       style="fill:#ff002b;fill-opacity:0.72777776;stroke:#000000;stroke-width:0.26458332px;stroke-linecap:butt;stroke-linejoin:miter;stroke-opacity:1"
       d="m 79.233259,115.42968 11.254179,14.87766 6.898894,-16.01947 z"
       id="path5271"
       inkscape:connector-curvature="0" />
  </g>
  <g
     inkscape:groupmode="layer"
     id="layer4"
     inkscape:label="napisy i punkty">
    <flowRoot
       xml:space="preserve"
       id="flowRoot5289"
       style="font-style:normal;font-weight:normal;font-size:40px;line-height:1.25;font-family:sans-serif;letter-spacing:0px;word-spacing:0px;fill:#000000;fill-opacity:1;stroke:none"
       transform="scale(0.26458333)"><flowRegion
         id="flowRegion5291"><rect
           id="rect5293"
           width="42.142857"
           height="40.714287"
           x="183.57143"
           y="341.80539" /></flowRegion><flowPara
         id="flowPara5295">A</flowPara></flowRoot>    <flowRoot
       xml:space="preserve"
       id="flowRoot5297"
       style="font-style:normal;font-weight:normal;font-size:40px;line-height:1.25;font-family:sans-serif;letter-spacing:0px;word-spacing:0px;fill:#000000;fill-opacity:1;stroke:none"
       transform="matrix(0.26458333,0,0,0.26458333,9.5339246,-14.275991)"><flowRegion
         id="flowRegion5299"><rect
           id="rect5301"
           width="70.205605"
           height="69.19545"
           x="172.73608"
           y="403.79614" /></flowRegion><flowPara
         id="flowPara5303"
         style="font-size:24px;line-height:0">A<flowSpan
   style="font-size:64.99999762%;baseline-shift:sub"
   id="flowSpan5305">0</flowSpan></flowPara></flowRoot>    <flowRoot
       xml:space="preserve"
       id="flowRoot5297-4"
       style="font-style:normal;font-weight:normal;font-size:40px;line-height:1.25;font-family:sans-serif;letter-spacing:0px;word-spacing:0px;fill:#000000;fill-opacity:1;stroke:none"
       transform="matrix(0.26458333,0,0,0.26458333,90.58786,-34.698649)"><flowRegion
         id="flowRegion5299-4"><rect
           id="rect5301-1"
           width="70.205605"
           height="69.19545"
           x="172.73608"
           y="403.79614" /></flowRegion><flowPara
         id="flowPara5303-1"
         style="font-size:24px;line-height:0">A<flowSpan
   style="font-size:64.99999762%;baseline-shift:sub"
   id="flowSpan5348">1</flowSpan></flowPara></flowRoot>    <flowRoot
       xml:space="preserve"
       id="flowRoot5297-9"
       style="font-style:normal;font-weight:normal;font-size:40px;line-height:1.25;font-family:sans-serif;letter-spacing:0px;word-spacing:0px;fill:#000000;fill-opacity:1;stroke:none"
       transform="matrix(0.26458333,0,0,0.26458333,47.498574,51.290935)"><flowRegion
         id="flowRegion5299-5"><rect
           id="rect5301-4"
           width="70.205605"
           height="69.19545"
           x="172.73608"
           y="403.79614" /></flowRegion><flowPara
         id="flowPara5303-9"
         style="font-size:24px;line-height:0">A<flowSpan
   style="font-size:64.99999762%;baseline-shift:sub"
   id="flowSpan5350">2</flowSpan></flowPara></flowRoot>    <path
       style="fill:none;stroke:#000000;stroke-width:0.26458332px;stroke-linecap:butt;stroke-linejoin:miter;stroke-opacity:1"
       d="M 90.520847,120.3766 91.8739,170.38106"
       id="path5383"
       inkscape:connector-curvature="0" />
    <path
       style="fill:none;stroke:#000000;stroke-width:0.26458332px;stroke-linecap:butt;stroke-linejoin:miter;stroke-opacity:1"
       d="M 90.520847,120.3766 135.15011,84.648251"
       id="path5385"
       inkscape:connector-curvature="0" />
    <path
       style="fill:none;stroke:#000000;stroke-width:0.26458332px;stroke-linecap:butt;stroke-linejoin:miter;stroke-opacity:1"
       d="M 54.251394,104.75186 90.520847,120.3766"
       id="path5387"
       inkscape:connector-curvature="0" />
    <circle
       id="path3713-4-4-4"
       cx="90.529198"
       cy="120.39331"
       r="0.66145831"
       style="display:inline;fill:#ffffff;fill-opacity:1;stroke:#000000;stroke-width:0.26458332;stroke-opacity:1" />
    <flowRoot
       xml:space="preserve"
       id="flowRoot5297-44"
       style="font-style:normal;font-weight:normal;font-size:40px;line-height:1.25;font-family:sans-serif;letter-spacing:0px;word-spacing:0px;fill:#ffffff;fill-opacity:1;stroke:none"
       transform="matrix(0.26458333,0,0,0.26458333,39.15321,4.7773036)"
       inkscape:transform-center-x="13.898015"><flowRegion
         id="flowRegion5299-8"
         style="fill:#ffffff;fill-opacity:1"><rect
           id="rect5301-6"
           width="70.205605"
           height="69.19545"
           x="172.73608"
           y="403.79614"
           style="fill:#ffffff;fill-opacity:1" /></flowRegion><flowPara
         id="flowPara5303-2"
         style="font-size:24px;line-height:0;fill:#ffffff;fill-opacity:1">T</flowPara></flowRoot>    <flowRoot
       xml:space="preserve"
       id="flowRoot5452"
       style="font-style:normal;font-weight:normal;font-size:40px;line-height:1.25;font-family:sans-serif;letter-spacing:0px;word-spacing:0px;fill:#000000;fill-opacity:1;stroke:none"
       transform="matrix(0.26458333,0,0,0.26458333,6.9490077,10.557146)"><flowRegion
         id="flowRegion5454"><rect
           id="rect5456"
           width="60.609165"
           height="62.124382"
           x="391.93918"
           y="295.20474" /></flowRegion><flowPara
         id="flowPara5458"
         style="font-size:24px"><flowSpan
           style="font-style:italic"
           id="flowSpan7189">r</flowSpan><flowSpan
           style="font-size:64.99999762%;baseline-shift:sub"
           id="flowSpan5462">1</flowSpan></flowPara></flowRoot>    <flowRoot
       xml:space="preserve"
       id="flowRoot5452-3"
       style="font-style:normal;font-weight:normal;font-size:40px;line-height:1.25;font-family:sans-serif;letter-spacing:0px;word-spacing:0px;fill:#000000;fill-opacity:1;stroke:none"
       transform="matrix(0.26458333,0,0,0.26458333,-18.621975,63.140295)"><flowRegion
         id="flowRegion5454-0"><rect
           id="rect5456-8"
           width="60.609165"
           height="62.124382"
           x="391.93918"
           y="295.20474" /></flowRegion><flowPara
         id="flowPara5458-7"
         style="font-size:24px"><flowSpan
           style="font-style:italic"
           id="flowSpan7191">r</flowSpan><flowSpan
           style="font-size:64.99999762%;baseline-shift:sub"
           id="flowSpan5462-1">2</flowSpan></flowPara></flowRoot>    <flowRoot
       xml:space="preserve"
       id="flowRoot5452-9"
       style="font-style:normal;font-weight:normal;font-size:40px;line-height:1.25;font-family:sans-serif;letter-spacing:0px;word-spacing:0px;fill:#000000;fill-opacity:1;stroke:none"
       transform="matrix(0.26458333,0,0,0.26458333,-35.36049,21.118014)"><flowRegion
         id="flowRegion5454-1"><rect
           id="rect5456-9"
           width="60.609165"
           height="62.124382"
           x="391.93918"
           y="295.20474" /></flowRegion><flowPara
         id="flowPara5458-4"
         style="font-size:24px"><flowSpan
           style="font-style:italic"
           id="flowSpan7187">r</flowSpan><flowSpan
           style="font-size:64.99999762%;baseline-shift:sub"
           id="flowSpan5462-9">0</flowSpan></flowPara></flowRoot>    <circle
       id="path3713-4-0"
       cx="54.1889"
       cy="104.66616"
       r="0.66145831"
       style="fill:#00ff00;fill-opacity:1;stroke:#000000;stroke-width:0.26458332;stroke-opacity:1" />
    <circle
       id="path3713-4"
       cx="135.22731"
       cy="84.54203"
       r="0.66145831"
       style="fill:#00ff00;fill-opacity:1;stroke:#000000;stroke-width:0.2;stroke-miterlimit:4;stroke-dasharray:none;stroke-dashoffset:0;stroke-opacity:1" />
    <circle
       id="path3713"
       cx="91.868263"
       cy="170.56892"
       r="0.66145831"
       style="fill:#00ff00;fill-opacity:1;stroke:#000000;stroke-width:0.26458332;stroke-opacity:1" />
  </g>
</svg>
