<?xml version="1.0" encoding="UTF-8" standalone="no"?>
<!-- Created with Inkscape (http://www.inkscape.org/) -->

<svg
   xmlns:dc="http://purl.org/dc/elements/1.1/"
   xmlns:cc="http://creativecommons.org/ns#"
   xmlns:rdf="http://www.w3.org/1999/02/22-rdf-syntax-ns#"
   xmlns:svg="http://www.w3.org/2000/svg"
   xmlns="http://www.w3.org/2000/svg"
   xmlns:sodipodi="http://sodipodi.sourceforge.net/DTD/sodipodi-0.dtd"
   xmlns:inkscape="http://www.inkscape.org/namespaces/inkscape"
   width="210mm"
   height="297mm"
   viewBox="0 0 210 297"
   version="1.1"
   id="svg859"
   inkscape:version="0.92.4 (5da689c313, 2019-01-14)"
   sodipodi:docname="rozklad_wariancji_na_skladowe.svg"
   inkscape:export-filename="C:\Zasoby\Bambi\indoor_positioning_algorithms\tekst\obrazki\obrazki_traingulacja\rozklad_wariancji_na_skladowe.png"
   inkscape:export-xdpi="300"
   inkscape:export-ydpi="300">
  <defs
     id="defs853">
    <marker
       inkscape:stockid="Arrow1Lstart"
       orient="auto"
       refY="0.0"
       refX="0.0"
       id="Arrow1Lstart"
       style="overflow:visible"
       inkscape:isstock="true">
      <path
         id="path1582"
         d="M 0.0,0.0 L 5.0,-5.0 L -12.5,0.0 L 5.0,5.0 L 0.0,0.0 z "
         style="fill-rule:evenodd;stroke:#000000;stroke-width:1pt;stroke-opacity:1;fill:#6dff00;fill-opacity:1"
         transform="scale(0.8) translate(12.5,0)" />
    </marker>
    <marker
       inkscape:stockid="Arrow1Lend"
       orient="auto"
       refY="0.0"
       refX="0.0"
       id="marker3784"
       style="overflow:visible;"
       inkscape:isstock="true">
      <path
         id="path3782"
         d="M 0.0,0.0 L 5.0,-5.0 L -12.5,0.0 L 5.0,5.0 L 0.0,0.0 z "
         style="fill-rule:evenodd;stroke:#000000;stroke-width:1pt;stroke-opacity:1;fill:#6dff00;fill-opacity:1"
         transform="scale(0.8) rotate(180) translate(12.5,0)" />
    </marker>
    <marker
       inkscape:isstock="true"
       style="overflow:visible;"
       id="marker2944"
       refX="0.0"
       refY="0.0"
       orient="auto"
       inkscape:stockid="Arrow1Lend">
      <path
         transform="scale(0.8) rotate(180) translate(12.5,0)"
         style="fill-rule:evenodd;stroke:#000000;stroke-width:1pt;stroke-opacity:1;fill:#ff8a00;fill-opacity:1"
         d="M 0.0,0.0 L 5.0,-5.0 L -12.5,0.0 L 5.0,5.0 L 0.0,0.0 z "
         id="path2942" />
    </marker>
    <marker
       inkscape:isstock="true"
       style="overflow:visible;"
       id="marker2866"
       refX="0.0"
       refY="0.0"
       orient="auto"
       inkscape:stockid="Arrow1Lend">
      <path
         transform="scale(0.8) rotate(180) translate(12.5,0)"
         style="fill-rule:evenodd;stroke:#000000;stroke-width:1pt;stroke-opacity:1;fill:#6dff00;fill-opacity:1"
         d="M 0.0,0.0 L 5.0,-5.0 L -12.5,0.0 L 5.0,5.0 L 0.0,0.0 z "
         id="path2864" />
    </marker>
    <marker
       inkscape:isstock="true"
       style="overflow:visible;"
       id="marker2806"
       refX="0.0"
       refY="0.0"
       orient="auto"
       inkscape:stockid="Arrow1Lend">
      <path
         transform="scale(0.8) rotate(180) translate(12.5,0)"
         style="fill-rule:evenodd;stroke:#000000;stroke-width:1pt;stroke-opacity:1;fill:#000dff;fill-opacity:1"
         d="M 0.0,0.0 L 5.0,-5.0 L -12.5,0.0 L 5.0,5.0 L 0.0,0.0 z "
         id="path2804" />
    </marker>
    <marker
       inkscape:isstock="true"
       style="overflow:visible;"
       id="marker2734"
       refX="0.0"
       refY="0.0"
       orient="auto"
       inkscape:stockid="Arrow1Lend">
      <path
         transform="scale(0.8) rotate(180) translate(12.5,0)"
         style="fill-rule:evenodd;stroke:#ff0000;stroke-width:1pt;stroke-opacity:1;fill:#ff0000;fill-opacity:1"
         d="M 0.0,0.0 L 5.0,-5.0 L -12.5,0.0 L 5.0,5.0 L 0.0,0.0 z "
         id="path2732" />
    </marker>
    <marker
       inkscape:stockid="Arrow1Lend"
       orient="auto"
       refY="0.0"
       refX="0.0"
       id="marker2686"
       style="overflow:visible;"
       inkscape:isstock="true"
       inkscape:collect="always">
      <path
         id="path2684"
         d="M 0.0,0.0 L 5.0,-5.0 L -12.5,0.0 L 5.0,5.0 L 0.0,0.0 z "
         style="fill-rule:evenodd;stroke:#ff0000;stroke-width:1pt;stroke-opacity:1;fill:#ff0000;fill-opacity:1"
         transform="scale(0.8) rotate(180) translate(12.5,0)" />
    </marker>
    <marker
       inkscape:stockid="Arrow1Lend"
       orient="auto"
       refY="0.0"
       refX="0.0"
       id="marker2228"
       style="overflow:visible;"
       inkscape:isstock="true"
       inkscape:collect="always">
      <path
         id="path2226"
         d="M 0.0,0.0 L 5.0,-5.0 L -12.5,0.0 L 5.0,5.0 L 0.0,0.0 z "
         style="fill-rule:evenodd;stroke:#000000;stroke-width:1pt;stroke-opacity:1;fill:#000000;fill-opacity:1"
         transform="scale(0.8) rotate(180) translate(12.5,0)" />
    </marker>
    <marker
       inkscape:stockid="Arrow1Lend"
       orient="auto"
       refY="0.0"
       refX="0.0"
       id="marker2022"
       style="overflow:visible;"
       inkscape:isstock="true"
       inkscape:collect="always">
      <path
         id="path2020"
         d="M 0.0,0.0 L 5.0,-5.0 L -12.5,0.0 L 5.0,5.0 L 0.0,0.0 z "
         style="fill-rule:evenodd;stroke:#000000;stroke-width:1pt;stroke-opacity:1;fill:#000000;fill-opacity:1"
         transform="scale(0.8) rotate(180) translate(12.5,0)" />
    </marker>
    <marker
       inkscape:stockid="Arrow1Lend"
       orient="auto"
       refY="0.0"
       refX="0.0"
       id="Arrow1Lend"
       style="overflow:visible;"
       inkscape:isstock="true"
       inkscape:collect="always">
      <path
         id="path1585"
         d="M 0.0,0.0 L 5.0,-5.0 L -12.5,0.0 L 5.0,5.0 L 0.0,0.0 z "
         style="fill-rule:evenodd;stroke:#000000;stroke-width:1pt;stroke-opacity:1;fill:#000000;fill-opacity:1"
         transform="scale(0.8) rotate(180) translate(12.5,0)" />
    </marker>
    <marker
       inkscape:stockid="Arrow1Lend"
       orient="auto"
       refY="0"
       refX="0"
       id="marker3784-7"
       style="overflow:visible"
       inkscape:isstock="true">
      <path
         inkscape:connector-curvature="0"
         id="path3782-2"
         d="M 0,0 5,-5 -12.5,0 5,5 Z"
         style="fill:#6dff00;fill-opacity:1;fill-rule:evenodd;stroke:#000000;stroke-width:1.00000003pt;stroke-opacity:1"
         transform="matrix(-0.8,0,0,-0.8,-10,0)" />
    </marker>
    <marker
       inkscape:stockid="Arrow1Lstart"
       orient="auto"
       refY="0"
       refX="0"
       id="Arrow1Lstart-9"
       style="overflow:visible"
       inkscape:isstock="true">
      <path
         inkscape:connector-curvature="0"
         id="path1582-1"
         d="M 0,0 5,-5 -12.5,0 5,5 Z"
         style="fill:#ff8a00;fill-opacity:1;fill-rule:evenodd;stroke:#000000;stroke-width:1.00000003pt;stroke-opacity:1"
         transform="matrix(0.8,0,0,0.8,10,0)" />
    </marker>
    <marker
       inkscape:stockid="Arrow1Lstart"
       orient="auto"
       refY="0"
       refX="0"
       id="Arrow1Lstart-9-8"
       style="overflow:visible"
       inkscape:isstock="true">
      <path
         inkscape:connector-curvature="0"
         id="path1582-1-3"
         d="M 0,0 5,-5 -12.5,0 5,5 Z"
         style="fill:#ff8a00;fill-opacity:1;fill-rule:evenodd;stroke:#000000;stroke-width:1.00000003pt;stroke-opacity:1"
         transform="matrix(0.8,0,0,0.8,10,0)" />
    </marker>
    <marker
       inkscape:stockid="Arrow1Lstart"
       orient="auto"
       refY="0"
       refX="0"
       id="Arrow1Lstart-8"
       style="overflow:visible"
       inkscape:isstock="true">
      <path
         inkscape:connector-curvature="0"
         id="path1582-9"
         d="M 0,0 5,-5 -12.5,0 5,5 Z"
         style="fill:#000dff;fill-opacity:1;fill-rule:evenodd;stroke:#000000;stroke-width:1.00000003pt;stroke-opacity:1"
         transform="matrix(0.8,0,0,0.8,10,0)" />
    </marker>
    <marker
       inkscape:stockid="Arrow1Lstart"
       orient="auto"
       refY="0"
       refX="0"
       id="Arrow1Lstart-9-8-0"
       style="overflow:visible"
       inkscape:isstock="true">
      <path
         inkscape:connector-curvature="0"
         id="path1582-1-3-9"
         d="M 0,0 5,-5 -12.5,0 5,5 Z"
         style="fill:#000dff;fill-opacity:1;fill-rule:evenodd;stroke:#000000;stroke-width:1.00000003pt;stroke-opacity:1"
         transform="matrix(0.8,0,0,0.8,10,0)" />
    </marker>
  </defs>
  <sodipodi:namedview
     id="base"
     pagecolor="#ffffff"
     bordercolor="#666666"
     borderopacity="1.0"
     inkscape:pageopacity="0.0"
     inkscape:pageshadow="2"
     inkscape:zoom="1.979899"
     inkscape:cx="463.95692"
     inkscape:cy="757.71655"
     inkscape:document-units="mm"
     inkscape:current-layer="layer1"
     showgrid="false"
     showguides="true"
     inkscape:guide-bbox="true"
     inkscape:window-width="1920"
     inkscape:window-height="1017"
     inkscape:window-x="-8"
     inkscape:window-y="-8"
     inkscape:window-maximized="1" />
  <metadata
     id="metadata856">
    <rdf:RDF>
      <cc:Work
         rdf:about="">
        <dc:format>image/svg+xml</dc:format>
        <dc:type
           rdf:resource="http://purl.org/dc/dcmitype/StillImage" />
        <dc:title />
      </cc:Work>
    </rdf:RDF>
  </metadata>
  <g
     inkscape:label="Layer 1"
     inkscape:groupmode="layer"
     id="layer1">
    <rect
       style="fill:#6dff00;fill-opacity:0.37647059;stroke:#000000;stroke-width:0.44400001;stroke-linecap:round;stroke-miterlimit:4;stroke-dasharray:none;stroke-dashoffset:0;stroke-opacity:1"
       id="rect1111"
       width="26.269344"
       height="26.269344"
       x="-44.88467"
       y="44.958183"
       rx="1.0191459e-07" />
    <rect
       style="fill:#00ff00;fill-opacity:1;stroke:#000000;stroke-width:0.44400001;stroke-linecap:round;stroke-miterlimit:4;stroke-dasharray:none;stroke-dashoffset:0;stroke-opacity:1"
       id="rect1111-1"
       width="26.269344"
       height="26.269344"
       x="-44.88467"
       y="82.818947"
       rx="1.0191459e-07"
       inkscape:transform-center-x="-0.53453906"
       inkscape:transform-center-y="-37.685004" />
    <rect
       style="fill:#284b63;fill-opacity:1;stroke:#284b63;stroke-width:0.16500001;stroke-linecap:round;stroke-miterlimit:4;stroke-dasharray:0.165, 0.99000002;stroke-dashoffset:0;stroke-opacity:1"
       id="rect1111-6"
       width="26.269344"
       height="26.269344"
       x="-44.88467"
       y="120.67973"
       rx="1.0191459e-07" />
    <rect
       style="fill:#ffc603;fill-opacity:0.31764706;stroke:#000000;stroke-width:0.44400001;stroke-linecap:round;stroke-miterlimit:4;stroke-dasharray:none;stroke-dashoffset:0;stroke-opacity:1"
       id="rect1111-9"
       width="26.269344"
       height="26.269344"
       x="-44.88467"
       y="158.54048"
       rx="1.0191459e-07"
       inkscape:transform-center-y="-43.564933" />
    <rect
       style="fill:#000000;fill-opacity:1;stroke:#284b63;stroke-width:0.04365625;stroke-linecap:round;stroke-miterlimit:4;stroke-dasharray:none;stroke-dashoffset:0;stroke-opacity:1"
       id="rect1111-9-0"
       width="26.269344"
       height="26.269344"
       x="-44.88467"
       y="196.40121"
       rx="1.0191459e-07"
       inkscape:transform-center-y="-43.564933" />
    <path
       style="fill:#e03b20;fill-opacity:0.95686275;stroke:#000000;stroke-width:0.46700001;stroke-linecap:round;stroke-miterlimit:4;stroke-dasharray:none;stroke-dashoffset:0;stroke-opacity:1"
       d="m -44.659687,146.4564 c -0.0821,-1.16001 -0.0955,-24.74423 -0.0143,-25.12333 0.0938,-0.43763 0.93241,-0.46772 13.03166,-0.46772 h 12.931395 v 12.96257 12.96257 h -12.962575 c -10.17926,0 -12.96765,-0.0717 -12.98622,-0.33409 z"
       id="path1164"
       inkscape:connector-curvature="0" />
    <path
       style="fill:none;stroke:#000000;stroke-width:0.16500001;stroke-linecap:butt;stroke-linejoin:miter;stroke-miterlimit:4;stroke-dasharray:0.33, 0.165;stroke-dashoffset:0;stroke-opacity:1"
       d="M 56.265081,198.41908 31.684816,167.01162"
       id="path1574"
       inkscape:connector-curvature="0" />
    <path
       style="fill:none;stroke:#000000;stroke-width:0.16500001;stroke-linecap:butt;stroke-linejoin:miter;stroke-miterlimit:4;stroke-dasharray:0.33, 0.165;stroke-dashoffset:0;stroke-opacity:1"
       d="M 97.28274,202.45391 56.265079,198.41908"
       id="path1578"
       inkscape:connector-curvature="0" />
    <path
       style="fill:#ffff00;stroke:#000000;stroke-width:0.26458332px;stroke-linecap:butt;stroke-linejoin:miter;stroke-opacity:1;fill-opacity:0.85490197"
       d="m 67.084648,64.34188 v 60.86794 L 133.90203,64.34188 Z"
       id="path2651"
       inkscape:connector-curvature="0"
       inkscape:export-xdpi="300"
       inkscape:export-ydpi="300" />
    <path
       style="fill:none;stroke:#000000;stroke-width:0.26499999;stroke-linecap:butt;stroke-linejoin:miter;stroke-opacity:1;stroke-miterlimit:4;stroke-dasharray:0.52999997,0.26499999;stroke-dashoffset:0"
       d="M 67.084648,64.34188 85.658853,84.766369"
       id="path2672"
       inkscape:connector-curvature="0"
       inkscape:export-xdpi="300"
       inkscape:export-ydpi="300" />
    <path
       style="fill:none;stroke:#000000;stroke-width:0.26499999;stroke-linecap:butt;stroke-linejoin:miter;stroke-opacity:1;stroke-miterlimit:4;stroke-dasharray:0.52999997,0.26499999;stroke-dashoffset:0"
       d="M 133.90203,64.34188 85.658853,84.766369"
       id="path2676"
       inkscape:connector-curvature="0"
       inkscape:export-xdpi="300"
       inkscape:export-ydpi="300" />
    <path
       inkscape:connector-curvature="0"
       style="fill:#00ff00;fill-opacity:1;stroke:#000000;stroke-width:0.26142433;stroke-miterlimit:4;stroke-dasharray:none;stroke-dashoffset:0;stroke-opacity:1"
       d="m 134.73697,64.341881 a 0.86460646,0.86460646 0 0 1 -0.86461,0.86461 0.86460646,0.86460646 0 0 1 -0.86461,-0.86461 0.86460646,0.86460646 0 0 1 0.86461,-0.864611 0.86460646,0.86460646 0 0 1 0.86461,0.864611 z"
       id="path3713-4"
       inkscape:export-xdpi="300"
       inkscape:export-ydpi="300" />
    <path
       style="fill:none;stroke:#000000;stroke-width:0.16500001;stroke-linecap:butt;stroke-linejoin:miter;stroke-miterlimit:4;stroke-dasharray:0.33, 0.165;stroke-dashoffset:0;stroke-opacity:1"
       d="M 43.645086,228.46257 56.265079,198.41908"
       id="path1576"
       inkscape:connector-curvature="0" />
    <path
       style="fill:none;stroke:#000000;stroke-width:0.26499999;stroke-linecap:butt;stroke-linejoin:miter;stroke-opacity:1;stroke-miterlimit:4;stroke-dasharray:0.52999997,0.26499999;stroke-dashoffset:0"
       d="M 67.084648,125.20982 85.658853,84.766369"
       id="path2674"
       inkscape:connector-curvature="0"
       inkscape:export-xdpi="300"
       inkscape:export-ydpi="300" />
    <path
       inkscape:connector-curvature="0"
       style="fill:#ff8a00;fill-opacity:1;stroke:#000000;stroke-width:0.26142433;stroke-miterlimit:4;stroke-dasharray:none;stroke-dashoffset:0;stroke-opacity:1"
       d="m 68.020093,125.2773 a 0.86460647,0.86460647 0 0 1 -0.86461,0.86461 0.86460647,0.86460647 0 0 1 -0.86461,-0.86461 0.86460647,0.86460647 0 0 1 0.86461,-0.86461 0.86460647,0.86460647 0 0 1 0.86461,0.86461 z"
       id="path3713-4-6"
       inkscape:export-xdpi="300"
       inkscape:export-ydpi="300" />
    <path
       inkscape:connector-curvature="0"
       style="fill:#000dff;fill-opacity:1;stroke:#000000;stroke-width:0.26142433;stroke-miterlimit:4;stroke-dasharray:none;stroke-dashoffset:0;stroke-opacity:1"
       d="m 67.955385,64.544643 a 0.86460647,0.86460647 0 0 1 -0.86461,0.86461 0.86460647,0.86460647 0 0 1 -0.86461,-0.86461 0.86460647,0.86460647 0 0 1 0.86461,-0.864616 0.86460647,0.86460647 0 0 1 0.86461,0.864616 z"
       id="path3713-4-62"
       inkscape:export-xdpi="300"
       inkscape:export-ydpi="300" />
    <path
       inkscape:connector-curvature="0"
       style="fill:#d93b22;fill-opacity:1;stroke:#000000;stroke-width:0.26142433;stroke-miterlimit:4;stroke-dasharray:none;stroke-dashoffset:0;stroke-opacity:1"
       d="m 57.238404,198.5785 a 0.86460647,0.86460647 0 0 1 -0.86461,0.86461 0.86460647,0.86460647 0 0 1 -0.86461,-0.86461 0.86460647,0.86460647 0 0 1 0.86461,-0.86461 0.86460647,0.86460647 0 0 1 0.86461,0.86461 z"
       id="path3713-4-4" />
    <g
       aria-label="A0"
       transform="matrix(0.26458333,0,0,0.26458333,12.829758,-55.402769)"
       style="font-style:normal;font-weight:normal;font-size:40px;line-height:1.25;font-family:sans-serif;letter-spacing:0px;word-spacing:0px;fill:#000000;fill-opacity:1;stroke:none"
       id="flowRoot5297"
       inkscape:export-xdpi="300"
       inkscape:export-ydpi="300">
      <path
         inkscape:connector-curvature="0"
         d="m 180.93945,424.02344 -3.21093,8.70703 h 6.43359 z m -1.33593,-2.33203 h 2.68359 l 6.66797,17.49609 h -2.46094 l -1.59375,-4.48828 h -7.88672 l -1.59375,4.48828 h -2.49609 z"
         style="font-size:24px;line-height:0"
         id="path7545" />
      <path
         inkscape:connector-curvature="0"
         d="m 194.10137,433.62813 q -1.18828,0 -1.79004,1.17304 -0.59414,1.16543 -0.59414,3.51153 0,2.33847 0.59414,3.51152 0.60176,1.16543 1.79004,1.16543 1.1959,0 1.79004,-1.16543 0.60175,-1.17305 0.60175,-3.51152 0,-2.3461 -0.60175,-3.51153 -0.59414,-1.17304 -1.79004,-1.17304 z m 0,-1.21875 q 1.91191,0 2.91738,1.51582 1.01309,1.5082 1.01309,4.3875 0,2.87168 -1.01309,4.3875 -1.00547,1.5082 -2.91738,1.5082 -1.91192,0 -2.925,-1.5082 -1.00547,-1.51582 -1.00547,-4.3875 0,-2.8793 1.00547,-4.3875 1.01308,-1.51582 2.925,-1.51582 z"
         style="font-size:64.99999762%;baseline-shift:sub"
         id="path7547" />
    </g>
    <g
       aria-label="A1"
       transform="matrix(0.26458333,0,0,0.26458333,90.084938,-55.491031)"
       style="font-style:normal;font-weight:normal;font-size:40px;line-height:1.25;font-family:sans-serif;letter-spacing:0px;word-spacing:0px;fill:#000000;fill-opacity:1;stroke:none"
       id="flowRoot5297-4"
       inkscape:export-xdpi="300"
       inkscape:export-ydpi="300">
      <path
         inkscape:connector-curvature="0"
         d="m 180.93945,424.02344 -3.21093,8.70703 h 6.43359 z m -1.33593,-2.33203 h 2.68359 l 6.66797,17.49609 h -2.46094 l -1.59375,-4.48828 h -7.88672 l -1.59375,4.48828 h -2.49609 z"
         style="font-size:24px;line-height:0"
         id="path7540" />
      <path
         inkscape:connector-curvature="0"
         d="m 191.07734,442.69258 h 2.51368 v -8.67598 l -2.73457,0.54844 v -1.40156 l 2.71933,-0.54844 h 1.53867 v 10.07754 h 2.51367 v 1.29492 h -6.55078 z"
         style="font-size:64.99999762%;baseline-shift:sub"
         id="path7542" />
    </g>
    <g
       aria-label="A2"
       transform="matrix(0.26458333,0,0,0.26458333,14.827789,15.634499)"
       style="font-style:normal;font-weight:normal;font-size:40px;line-height:1.25;font-family:sans-serif;letter-spacing:0px;word-spacing:0px;fill:#000000;fill-opacity:1;stroke:none"
       id="flowRoot5297-9"
       inkscape:export-xdpi="300"
       inkscape:export-ydpi="300">
      <path
         inkscape:connector-curvature="0"
         d="m 180.93945,424.02344 -3.21093,8.70703 h 6.43359 z m -1.33593,-2.33203 h 2.68359 l 6.66797,17.49609 h -2.46094 l -1.59375,-4.48828 h -7.88672 l -1.59375,4.48828 h -2.49609 z"
         style="font-size:24px;line-height:0"
         id="path7535" />
      <path
         inkscape:connector-curvature="0"
         d="m 192.13613,442.69258 h 5.37012 v 1.29492 h -7.22109 v -1.29492 q 0.87597,-0.90645 2.38418,-2.42988 1.51582,-1.53106 1.90429,-1.97286 0.73887,-0.83027 1.02832,-1.40156 0.29707,-0.5789 0.29707,-1.13496 0,-0.90644 -0.63984,-1.47773 -0.63223,-0.57129 -1.65293,-0.57129 -0.72363,0 -1.53105,0.25136 -0.79981,0.25137 -1.71387,0.76172 v -1.5539 q 0.92929,-0.37325 1.73672,-0.56367 0.80742,-0.19043 1.47773,-0.19043 1.76719,0 2.81836,0.88359 1.05117,0.88359 1.05117,2.36133 0,0.70078 -0.2666,1.33301 -0.25898,0.6246 -0.95215,1.47773 -0.19043,0.2209 -1.21113,1.27969 -1.0207,1.05117 -2.8793,2.94785 z"
         style="font-size:64.99999762%;baseline-shift:sub"
         id="path7537" />
    </g>
    <path
       style="fill:none;stroke:#000dff;stroke-width:0.26499999;stroke-linecap:butt;stroke-linejoin:miter;stroke-miterlimit:4;stroke-dasharray:none;stroke-opacity:1;marker-end:url(#Arrow1Lend)"
       d="M 56.265079,198.41908 47.253225,186.88545"
       id="path1580"
       inkscape:connector-curvature="0" />
    <path
       style="fill:none;stroke:#ff4b39;stroke-width:0.26458332px;stroke-linecap:butt;stroke-linejoin:miter;stroke-opacity:1;marker-end:url(#marker2022)"
       d="m 56.265079,198.41908 -3.298968,7.87683"
       id="path1876"
       inkscape:connector-curvature="0" />
    <path
       style="fill:none;stroke:#4cd100;stroke-width:0.26499999;stroke-linecap:butt;stroke-linejoin:miter;stroke-miterlimit:4;stroke-dasharray:none;stroke-opacity:1;marker-end:url(#marker2228)"
       d="m 56.265079,198.41908 10.819571,1.06306"
       id="path2224"
       inkscape:connector-curvature="0" />
    <path
       style="fill:none;stroke:#ff0000;stroke-width:0.10932376;stroke-linecap:butt;stroke-linejoin:miter;stroke-miterlimit:4;stroke-dasharray:none;stroke-dashoffset:0;stroke-opacity:1;marker-end:url(#marker2686)"
       d="M 85.788779,57.930312 V 133.01377"
       id="path2682"
       inkscape:connector-curvature="0"
       inkscape:export-xdpi="300"
       inkscape:export-ydpi="300" />
    <path
       style="fill:none;stroke:#ff0000;stroke-width:0.1073391;stroke-linecap:butt;stroke-linejoin:miter;stroke-miterlimit:4;stroke-dasharray:none;stroke-opacity:1;marker-end:url(#marker2734)"
       d="M 58.258835,84.577369 H 139.8091"
       id="path2724"
       inkscape:connector-curvature="0"
       inkscape:export-xdpi="300"
       inkscape:export-ydpi="300" />
    <rect
       style="fill:#000dff;fill-opacity:0.37647059;stroke:none;stroke-width:0.26834938;stroke-miterlimit:4;stroke-dasharray:none;stroke-dashoffset:0;stroke-opacity:1"
       id="rect3218"
       width="10.33596"
       height="11.058441"
       x="75.523346"
       y="73.47406"
       inkscape:export-xdpi="300"
       inkscape:export-ydpi="300" />
    <path
       style="fill:#000dff;fill-opacity:1;stroke:#000000;stroke-width:0.265;stroke-linecap:butt;stroke-linejoin:miter;stroke-opacity:1;marker-end:url(#marker2806);stroke-miterlimit:4;stroke-dasharray:none"
       d="M 85.596892,84.713307 75.523347,73.474059"
       id="path2796"
       inkscape:connector-curvature="0"
       inkscape:export-xdpi="300"
       inkscape:export-ydpi="300" />
    <rect
       style="fill:#ff8a00;fill-opacity:0.52525252;stroke:none;stroke-width:0.17088358;stroke-miterlimit:4;stroke-dasharray:none;stroke-dashoffset:0;stroke-opacity:1"
       id="rect3216"
       width="5.4620681"
       height="11.251014"
       x="80.39724"
       y="84.532501"
       inkscape:export-xdpi="300"
       inkscape:export-ydpi="300" />
    <rect
       style="fill:#6dff00;fill-opacity:0.40909091;stroke:none;stroke-width:0.16500001;stroke-miterlimit:4;stroke-dasharray:none;stroke-dashoffset:0;stroke-opacity:1"
       id="rect3220"
       width="17.847914"
       height="7.4673991"
       x="85.859306"
       y="77.065102"
       inkscape:export-xdpi="300"
       inkscape:export-ydpi="300" />
    <path
       style="fill:#6dff00;stroke:#000000;stroke-width:0.26458332px;stroke-linecap:butt;stroke-linejoin:miter;stroke-opacity:1;marker-end:url(#marker2866);fill-opacity:1"
       d="M 85.658853,84.766369 103.70722,77.065102"
       id="path2856"
       inkscape:connector-curvature="0"
       inkscape:export-xdpi="300"
       inkscape:export-ydpi="300" />
    <path
       style="fill:#ff8a00;stroke:#000000;stroke-width:0.26458332px;stroke-linecap:butt;stroke-linejoin:miter;stroke-opacity:1;marker-end:url(#marker2944);fill-opacity:1"
       d="M 85.658853,84.766369 80.697916,95.633182"
       id="path2934"
       inkscape:connector-curvature="0"
       inkscape:export-xdpi="300"
       inkscape:export-ydpi="300" />
    <path
       style="fill:#6dff00;stroke:#000000;stroke-width:0.165;stroke-linecap:butt;stroke-linejoin:miter;stroke-opacity:1;stroke-miterlimit:2.9000001;stroke-dasharray:0.66000001,0.33000001;marker-end:url(#marker3784);fill-opacity:1;stroke-dashoffset:0"
       d="M 85.859304,84.532501 H 103.70722"
       id="path3222"
       inkscape:connector-curvature="0"
       inkscape:export-xdpi="300"
       inkscape:export-ydpi="300" />
    <path
       style="fill:#6dff00;fill-opacity:1;stroke:#000000;stroke-width:0.16214395;stroke-linecap:butt;stroke-linejoin:miter;stroke-miterlimit:4;stroke-dasharray:0.64857574, 0.32428787;stroke-dashoffset:0;stroke-opacity:1;marker-start:url(#Arrow1Lstart)"
       d="m 85.859304,77.321378 v 7.211123"
       id="path4733"
       inkscape:connector-curvature="0"
       inkscape:export-xdpi="300"
       inkscape:export-ydpi="300" />
    <path
       style="fill:#ff8a00;fill-opacity:1;stroke:#000000;stroke-width:0.165;stroke-linecap:butt;stroke-linejoin:miter;stroke-miterlimit:4;stroke-dasharray:0.66, 0.33000000000000002;stroke-dashoffset:0;stroke-opacity:1;marker-start:url(#Arrow1Lstart-9)"
       d="M 85.859304,95.77273 V 84.532501"
       id="path4733-6"
       inkscape:connector-curvature="0"
       inkscape:export-xdpi="300"
       inkscape:export-ydpi="300" />
    <path
       style="fill:#ff8a00;fill-opacity:1;stroke:#000000;stroke-width:0.165;stroke-linecap:butt;stroke-linejoin:miter;stroke-miterlimit:4;stroke-dasharray:0.66,0.33;stroke-dashoffset:0;stroke-opacity:1;marker-start:url(#Arrow1Lstart-9-8)"
       d="m 80.499124,84.532501 h 5.36018"
       id="path4733-6-4"
       inkscape:connector-curvature="0"
       inkscape:export-xdpi="300"
       inkscape:export-ydpi="300" />
    <path
       style="fill:#000dff;fill-opacity:1;stroke:#000000;stroke-width:0.15710314;stroke-linecap:butt;stroke-linejoin:miter;stroke-miterlimit:4;stroke-dasharray:0.6284125, 0.31420625;stroke-dashoffset:0;stroke-opacity:1;marker-start:url(#Arrow1Lstart-8)"
       d="m 85.859306,73.669944 v 3.377218"
       id="path4733-5"
       inkscape:connector-curvature="0"
       inkscape:export-xdpi="300"
       inkscape:export-ydpi="300" />
    <path
       style="fill:#000dff;fill-opacity:1;stroke:#000000;stroke-width:0.161;stroke-linecap:butt;stroke-linejoin:miter;stroke-miterlimit:4;stroke-dasharray:0.644, 0.32200000000000001;stroke-dashoffset:0;stroke-opacity:1;marker-start:url(#Arrow1Lstart-9-8-0)"
       d="m 75.790843,84.532501 h 5.092683"
       id="path4733-6-4-4"
       inkscape:connector-curvature="0"
       inkscape:export-xdpi="300"
       inkscape:export-ydpi="300" />
    <path
       inkscape:connector-curvature="0"
       style="fill:#d93b22;fill-opacity:1;stroke:#000000;stroke-width:0.26142433;stroke-miterlimit:4;stroke-dasharray:none;stroke-dashoffset:0;stroke-opacity:1"
       d="m 86.59503,84.75572 a 0.86460647,0.86460647 0 0 1 -0.86461,0.86461 0.86460647,0.86460647 0 0 1 -0.86461,-0.86461 0.86460647,0.86460647 0 0 1 0.86461,-0.86461 0.86460647,0.86460647 0 0 1 0.86461,0.86461 z"
       id="path3713-4-4-7"
       inkscape:export-xdpi="300"
       inkscape:export-ydpi="300" />
    <flowRoot
       xml:space="preserve"
       id="flowRoot6718"
       style="font-style:normal;font-weight:normal;font-size:40px;line-height:1.25;font-family:sans-serif;letter-spacing:0px;word-spacing:0px;fill:#000000;fill-opacity:1;stroke:none"
       transform="matrix(0.26458333,0,0,0.26458333,112.2532,35.012308)"
       inkscape:export-xdpi="300"
       inkscape:export-ydpi="300"><flowRegion
         id="flowRegion6720"><rect
           id="rect6722"
           width="117.68277"
           height="51.012703"
           x="56.063465"
           y="167.92552" /></flowRegion><flowPara
         id="flowPara6724"
         style="font-size:16px">oś X</flowPara></flowRoot>    <flowRoot
       xml:space="preserve"
       id="flowRoot6718-0"
       style="font-style:normal;font-weight:normal;font-size:40px;line-height:1.25;font-family:sans-serif;letter-spacing:0px;word-spacing:0px;fill:#000000;fill-opacity:1;stroke:none"
       transform="matrix(0.26458333,0,0,0.26458333,72.216241,74.630877)"
       inkscape:export-xdpi="300"
       inkscape:export-ydpi="300"><flowRegion
         id="flowRegion6720-1"><rect
           id="rect6722-6"
           width="117.68277"
           height="51.012703"
           x="56.063465"
           y="167.92552" /></flowRegion><flowPara
         id="flowPara6724-1"
         style="font-size:16px">oś Y</flowPara></flowRoot>    <flowRoot
       xml:space="preserve"
       id="flowRoot6718-4"
       style="font-style:normal;font-weight:normal;font-size:40px;line-height:1.25;font-family:sans-serif;letter-spacing:0px;word-spacing:0px;fill:#000000;fill-opacity:1;stroke:none"
       transform="matrix(0.26458333,0,0,0.26458333,71.91853,34.554029)"
       inkscape:export-xdpi="300"
       inkscape:export-ydpi="300"><flowRegion
         id="flowRegion6720-2"><rect
           id="rect6722-0"
           width="117.68277"
           height="51.012703"
           x="56.063465"
           y="167.92552" /></flowRegion><flowPara
         id="flowPara6724-6"
         style="font-size:16px">T</flowPara></flowRoot>    <flowRoot
       xml:space="preserve"
       id="flowRoot6718-4-1"
       style="font-style:normal;font-weight:normal;font-size:40px;line-height:1.25;font-family:sans-serif;letter-spacing:0px;word-spacing:0px;fill:#000000;fill-opacity:1;stroke:none"
       transform="matrix(0.26458333,0,0,0.26458333,79.49046,21.163631)"><flowRegion
         id="flowRegion6720-2-9"><rect
           id="rect6722-0-2"
           width="117.68277"
           height="51.012703"
           x="56.063465"
           y="167.92552" /></flowRegion><flowPara
         id="flowPara6724-6-1"
         style="font-size:16px" /></flowRoot>    <flowRoot
       xml:space="preserve"
       id="flowRoot6718-4-1-5-1"
       style="font-style:normal;font-weight:normal;font-size:40px;line-height:1.25;font-family:sans-serif;letter-spacing:0px;word-spacing:0px;fill:#000000;fill-opacity:1;stroke:none"
       transform="matrix(0.26458333,0,0,0.26458333,58.498873,44.21606)"
       inkscape:export-xdpi="300"
       inkscape:export-ydpi="300"><flowRegion
         id="flowRegion6720-2-9-0-2"><rect
           id="rect6722-0-2-9-5"
           width="117.68277"
           height="51.012703"
           x="56.063465"
           y="167.92552" /></flowRegion><flowPara
         id="flowPara6724-6-1-5-2"
         style="font-size:16px">σ<flowSpan
   style="font-size:64.99999762%;baseline-shift:super"
   id="flowSpan6838-3">A</flowSpan></flowPara></flowRoot>    <flowRoot
       xml:space="preserve"
       id="flowRoot6718-4-1-5-1-3"
       style="font-style:normal;font-weight:normal;font-size:40px;line-height:1.25;font-family:sans-serif;letter-spacing:0px;word-spacing:0px;fill:#000000;fill-opacity:1;stroke:none"
       transform="matrix(0.26458333,0,0,0.26458333,59.575699,18.153169)"
       inkscape:export-xdpi="300"
       inkscape:export-ydpi="300"><flowRegion
         id="flowRegion6720-2-9-0-2-8"><rect
           id="rect6722-0-2-9-5-8"
           width="117.68277"
           height="51.012703"
           x="56.063465"
           y="167.92552" /></flowRegion><flowPara
         id="flowPara6724-6-1-5-2-5"
         style="font-size:16px">σ<flowSpan
   style="font-size:64.99999762%;baseline-shift:super"
   id="flowSpan6838-3-4">A</flowSpan></flowPara></flowRoot>    <g
       id="g7013"
       inkscape:export-xdpi="300"
       inkscape:export-ydpi="300">
      <flowRoot
         transform="matrix(0.26458333,0,0,0.26458333,85.902147,21.476436)"
         style="font-style:normal;font-weight:normal;font-size:40px;line-height:1.25;font-family:sans-serif;letter-spacing:0px;word-spacing:0px;fill:#000000;fill-opacity:1;stroke:none"
         id="flowRoot6718-4-1-5"
         xml:space="preserve"><flowRegion
           id="flowRegion6720-2-9-0"><rect
             y="167.92552"
             x="56.063465"
             height="51.012703"
             width="117.68277"
             id="rect6722-0-2-9" /></flowRegion><flowPara
           style="font-size:16px"
           id="flowPara6724-6-1-5">σ<flowSpan
   id="flowSpan6838"
   style="font-size:64.99999762%;baseline-shift:super">A</flowSpan></flowPara></flowRoot>      <flowRoot
         transform="matrix(0.13724896,0,0,0.13724896,97.3892,46.369615)"
         style="font-style:normal;font-weight:normal;font-size:40px;line-height:1.25;font-family:sans-serif;letter-spacing:0px;word-spacing:0px;fill:#000000;fill-opacity:1;stroke:none"
         id="flowRoot6718-4-1-5-5"
         xml:space="preserve"><flowRegion
           id="flowRegion6720-2-9-0-7"><rect
             y="167.92552"
             x="56.063465"
             height="51.012703"
             width="117.68277"
             id="rect6722-0-2-9-52" /></flowRegion><flowPara
           style="font-size:16px"
           id="flowPara6724-6-1-5-5">1</flowPara></flowRoot>    </g>
    <flowRoot
       xml:space="preserve"
       id="flowRoot6718-4-1-5-5-7"
       style="font-style:normal;font-weight:normal;font-size:40px;line-height:1.25;font-family:sans-serif;letter-spacing:0px;word-spacing:0px;fill:#000000;fill-opacity:1;stroke:none"
       transform="matrix(0.13724896,0,0,0.13724896,71.154775,43.033305)"
       inkscape:export-xdpi="300"
       inkscape:export-ydpi="300"><flowRegion
         id="flowRegion6720-2-9-0-7-1"><rect
           id="rect6722-0-2-9-52-7"
           width="117.68277"
           height="51.012703"
           x="56.063465"
           y="167.92552" /></flowRegion><flowPara
         id="flowPara6724-6-1-5-5-3"
         style="font-size:16px">0</flowPara></flowRoot>    <flowRoot
       xml:space="preserve"
       id="flowRoot6718-4-1-5-5-7-0"
       style="font-style:normal;font-weight:normal;font-size:40px;line-height:1.25;font-family:sans-serif;letter-spacing:0px;word-spacing:0px;fill:#000000;fill-opacity:1;stroke:none"
       transform="matrix(0.13724896,0,0,0.13724896,70.036036,69.106023)"
       inkscape:export-xdpi="300"
       inkscape:export-ydpi="300"><flowRegion
         id="flowRegion6720-2-9-0-7-1-0"><rect
           id="rect6722-0-2-9-52-7-6"
           width="117.68277"
           height="51.012703"
           x="56.063465"
           y="167.92552" /></flowRegion><flowPara
         id="flowPara6724-6-1-5-5-3-2"
         style="font-size:16px">2</flowPara></flowRoot>    <g
       transform="matrix(0.69197766,0,0,0.69197766,22.391624,35.49479)"
       id="g7013-9"
       inkscape:export-xdpi="300"
       inkscape:export-ydpi="300">
      <flowRoot
         transform="matrix(0.26458333,0,0,0.26458333,85.902147,21.476436)"
         style="font-style:normal;font-weight:normal;font-size:40px;line-height:1.25;font-family:sans-serif;letter-spacing:0px;word-spacing:0px;fill:#000000;fill-opacity:1;stroke:none"
         id="flowRoot6718-4-1-5-3"
         xml:space="preserve"><flowRegion
           id="flowRegion6720-2-9-0-6"><rect
             y="167.92552"
             x="56.063465"
             height="51.012703"
             width="117.68277"
             id="rect6722-0-2-9-8" /></flowRegion><flowPara
           style="font-size:16px"
           id="flowPara6724-6-1-5-3">σ<flowSpan
   id="flowSpan6838-4"
   style="font-size:64.99999762%;baseline-shift:super">A</flowSpan></flowPara></flowRoot>      <flowRoot
         transform="matrix(0.13724896,0,0,0.13724896,97.3892,46.369615)"
         style="font-style:normal;font-weight:normal;font-size:40px;line-height:1.25;font-family:sans-serif;letter-spacing:0px;word-spacing:0px;fill:#000000;fill-opacity:1;stroke:none"
         id="flowRoot6718-4-1-5-5-9"
         xml:space="preserve"><flowRegion
           id="flowRegion6720-2-9-0-7-3"><rect
             y="167.92552"
             x="56.063465"
             height="51.012703"
             width="117.68277"
             id="rect6722-0-2-9-52-4" /></flowRegion><flowPara
           style="font-size:16px"
           id="flowPara6724-6-1-5-5-9">1</flowPara></flowRoot>    </g>
    <flowRoot
       xml:space="preserve"
       id="flowRoot7073"
       style="font-style:normal;font-weight:normal;font-size:40px;line-height:1.25;font-family:sans-serif;letter-spacing:0px;word-spacing:0px;fill:#000000;fill-opacity:1;stroke:none"
       transform="matrix(0.04638169,0,0,0.04638169,88.5179,76.22616)"
       inkscape:export-xdpi="300"
       inkscape:export-ydpi="300"><flowRegion
         id="flowRegion7075"><rect
           id="rect7077"
           width="87.14286"
           height="57.857143"
           x="116.78571"
           y="221.09111" /></flowRegion><flowPara
         id="flowPara7079">x</flowPara></flowRoot>    <g
       id="g7203"
       inkscape:export-xdpi="300"
       inkscape:export-ydpi="300">
      <g
         id="g7219"
         transform="translate(0.66145833,-0.04724702)">
        <g
           transform="matrix(0.69197765,0,0,0.69197765,16.615628,29.734413)"
           id="g7013-9-0">
          <flowRoot
             transform="matrix(0.26458333,0,0,0.26458333,85.902147,21.476436)"
             style="font-style:normal;font-weight:normal;font-size:40px;line-height:1.25;font-family:sans-serif;letter-spacing:0px;word-spacing:0px;fill:#000000;fill-opacity:1;stroke:none"
             id="flowRoot6718-4-1-5-3-3"
             xml:space="preserve"><flowRegion
               id="flowRegion6720-2-9-0-6-1"><rect
                 y="167.92552"
                 x="56.063465"
                 height="51.012703"
                 width="117.68277"
                 id="rect6722-0-2-9-8-3" /></flowRegion><flowPara
               style="font-size:16px"
               id="flowPara6724-6-1-5-3-8">σ<flowSpan
   id="flowSpan6838-4-8"
   style="font-size:64.99999762%;baseline-shift:super">A</flowSpan></flowPara></flowRoot>          <flowRoot
             transform="matrix(0.13724896,0,0,0.13724896,97.3892,46.369615)"
             style="font-style:normal;font-weight:normal;font-size:40px;line-height:1.25;font-family:sans-serif;letter-spacing:0px;word-spacing:0px;fill:#000000;fill-opacity:1;stroke:none"
             id="flowRoot6718-4-1-5-5-9-6"
             xml:space="preserve"><flowRegion
               id="flowRegion6720-2-9-0-7-3-9"><rect
                 y="167.92552"
                 x="56.063465"
                 height="51.012703"
                 width="117.68277"
                 id="rect6722-0-2-9-52-4-3" /></flowRegion><flowPara
               style="font-size:16px"
               id="flowPara6724-6-1-5-5-9-2">1</flowPara></flowRoot>        </g>
        <flowRoot
           xml:space="preserve"
           id="flowRoot7073-8"
           style="font-style:normal;font-weight:normal;font-size:40px;line-height:1.25;font-family:sans-serif;letter-spacing:0px;word-spacing:0px;fill:#000000;fill-opacity:1;stroke:none"
           transform="matrix(0.04638169,0,0,0.04638169,82.741904,70.465781)"><flowRegion
             id="flowRegion7075-3"><rect
               id="rect7077-7"
               width="87.14286"
               height="57.857143"
               x="116.78571"
               y="221.09111" /></flowRegion><flowPara
             id="flowPara7079-9">y</flowPara></flowRoot>      </g>
    </g>
    <g
       id="g7235"
       inkscape:export-xdpi="300"
       inkscape:export-ydpi="300">
      <g
         id="g7013-9-6"
         transform="matrix(0.69197765,0,0,0.69197765,17.182593,23.710417)">
        <flowRoot
           xml:space="preserve"
           id="flowRoot6718-4-1-5-3-7"
           style="font-style:normal;font-weight:normal;font-size:40px;line-height:1.25;font-family:sans-serif;letter-spacing:0px;word-spacing:0px;fill:#000000;fill-opacity:1;stroke:none"
           transform="matrix(0.26458333,0,0,0.26458333,85.902147,21.476436)"><flowRegion
             id="flowRegion6720-2-9-0-6-8"><rect
               id="rect6722-0-2-9-8-1"
               width="117.68277"
               height="51.012703"
               x="56.063465"
               y="167.92552" /></flowRegion><flowPara
             id="flowPara6724-6-1-5-3-9"
             style="font-size:16px">σ<flowSpan
   style="font-size:64.99999762%;baseline-shift:super"
   id="flowSpan6838-4-0">A</flowSpan></flowPara></flowRoot>        <flowRoot
           xml:space="preserve"
           id="flowRoot6718-4-1-5-5-9-4"
           style="font-style:normal;font-weight:normal;font-size:40px;line-height:1.25;font-family:sans-serif;letter-spacing:0px;word-spacing:0px;fill:#000000;fill-opacity:1;stroke:none"
           transform="matrix(0.13724896,0,0,0.13724896,97.559896,46.369615)"><flowRegion
             id="flowRegion6720-2-9-0-7-3-2"><rect
               id="rect6722-0-2-9-52-4-8"
               width="117.68277"
               height="51.012703"
               x="56.063465"
               y="167.92552" /></flowRegion><flowPara
             id="flowPara6724-6-1-5-5-9-4"
             style="font-size:16px">0</flowPara></flowRoot>      </g>
      <flowRoot
         transform="matrix(0.04638169,0,0,0.04638169,83.308869,64.441785)"
         style="font-style:normal;font-weight:normal;font-size:40px;line-height:1.25;font-family:sans-serif;letter-spacing:0px;word-spacing:0px;fill:#000000;fill-opacity:1;stroke:none"
         id="flowRoot7073-9"
         xml:space="preserve"><flowRegion
           id="flowRegion7075-0"><rect
             y="221.09111"
             x="116.78571"
             height="57.857143"
             width="87.14286"
             id="rect7077-2" /></flowRegion><flowPara
           id="flowPara7079-2">y</flowPara></flowRoot>    </g>
    <flowRoot
       xml:space="preserve"
       id="flowRoot6718-4-1-5-3-7-7"
       style="font-style:normal;font-weight:normal;font-size:40px;line-height:1.25;font-family:sans-serif;letter-spacing:0px;word-spacing:0px;fill:#000000;fill-opacity:1;stroke:none"
       transform="matrix(0.18308575,0,0,0.18308575,76.898069,57.044133)"
       inkscape:export-xdpi="300"
       inkscape:export-ydpi="300"><flowRegion
         id="flowRegion6720-2-9-0-6-8-0"><rect
           id="rect6722-0-2-9-8-1-3"
           width="117.68277"
           height="51.012703"
           x="56.063465"
           y="167.92552" /></flowRegion><flowPara
         id="flowPara6724-6-1-5-3-9-5"
         style="font-size:16px">σ<flowSpan
   style="font-size:64.99999762%;baseline-shift:super"
   id="flowSpan6838-4-0-2">A</flowSpan></flowPara></flowRoot>    <flowRoot
       xml:space="preserve"
       id="flowRoot6718-4-1-5-5-9-4-0"
       style="font-style:normal;font-weight:normal;font-size:40px;line-height:1.25;font-family:sans-serif;letter-spacing:0px;word-spacing:0px;fill:#000000;fill-opacity:1;stroke:none"
       transform="matrix(0.09497321,0,0,0.09497321,84.964971,74.269656)"
       inkscape:export-xdpi="300"
       inkscape:export-ydpi="300"><flowRegion
         id="flowRegion6720-2-9-0-7-3-2-0"><rect
           id="rect6722-0-2-9-52-4-8-2"
           width="117.68277"
           height="51.012703"
           x="56.063465"
           y="167.92552" /></flowRegion><flowPara
         id="flowPara6724-6-1-5-5-9-4-3"
         style="font-size:16px">2</flowPara></flowRoot>    <flowRoot
       xml:space="preserve"
       id="flowRoot7073-9-2"
       style="font-style:normal;font-weight:normal;font-size:40px;line-height:1.25;font-family:sans-serif;letter-spacing:0px;word-spacing:0px;fill:#000000;fill-opacity:1;stroke:none"
       transform="matrix(0.04638169,0,0,0.04638169,83.581979,82.914287)"
       inkscape:export-xdpi="300"
       inkscape:export-ydpi="300"><flowRegion
         id="flowRegion7075-0-8"><rect
           id="rect7077-2-4"
           width="87.14286"
           height="57.857143"
           x="116.78571"
           y="221.09111" /></flowRegion><flowPara
         id="flowPara7079-2-3">y</flowPara></flowRoot>    <g
       transform="matrix(0.69197765,0,0,0.69197765,3.2800433,35.587569)"
       id="g7013-9-4"
       inkscape:export-xdpi="300"
       inkscape:export-ydpi="300">
      <flowRoot
         transform="matrix(0.26458333,0,0,0.26458333,85.902147,21.476436)"
         style="font-style:normal;font-weight:normal;font-size:40px;line-height:1.25;font-family:sans-serif;letter-spacing:0px;word-spacing:0px;fill:#000000;fill-opacity:1;stroke:none"
         id="flowRoot6718-4-1-5-3-6"
         xml:space="preserve"><flowRegion
           id="flowRegion6720-2-9-0-6-14"><rect
             y="167.92552"
             x="56.063465"
             height="51.012703"
             width="117.68277"
             id="rect6722-0-2-9-8-10" /></flowRegion><flowPara
           style="font-size:16px"
           id="flowPara6724-6-1-5-3-98">σ<flowSpan
   id="flowSpan6838-4-2"
   style="font-size:64.99999762%;baseline-shift:super">A</flowSpan></flowPara></flowRoot>      <flowRoot
         transform="matrix(0.13724896,0,0,0.13724896,97.53404,46.369615)"
         style="font-style:normal;font-weight:normal;font-size:40px;line-height:1.25;font-family:sans-serif;letter-spacing:0px;word-spacing:0px;fill:#000000;fill-opacity:1;stroke:none"
         id="flowRoot6718-4-1-5-5-9-61"
         xml:space="preserve"><flowRegion
           id="flowRegion6720-2-9-0-7-3-1"><rect
             y="167.92552"
             x="56.063465"
             height="51.012703"
             width="117.68277"
             id="rect6722-0-2-9-52-4-5" /></flowRegion><flowPara
           style="font-size:16px"
           id="flowPara6724-6-1-5-5-9-45">0</flowPara></flowRoot>    </g>
    <flowRoot
       xml:space="preserve"
       id="flowRoot7073-5"
       style="font-style:normal;font-weight:normal;font-size:40px;line-height:1.25;font-family:sans-serif;letter-spacing:0px;word-spacing:0px;fill:#000000;fill-opacity:1;stroke:none"
       transform="matrix(0.04638169,0,0,0.04638169,69.406319,76.318937)"
       inkscape:export-xdpi="300"
       inkscape:export-ydpi="300"><flowRegion
         id="flowRegion7075-37"><rect
           id="rect7077-8"
           width="87.14286"
           height="57.857143"
           x="116.78571"
           y="221.09111" /></flowRegion><flowPara
         id="flowPara7079-7">x</flowPara></flowRoot>    <g
       transform="matrix(0.69197765,0,0,0.69197765,8.8198695,35.663914)"
       id="g7013-9-9"
       inkscape:export-xdpi="300"
       inkscape:export-ydpi="300">
      <flowRoot
         transform="matrix(0.26458333,0,0,0.26458333,85.902147,21.476436)"
         style="font-style:normal;font-weight:normal;font-size:40px;line-height:1.25;font-family:sans-serif;letter-spacing:0px;word-spacing:0px;fill:#000000;fill-opacity:1;stroke:none"
         id="flowRoot6718-4-1-5-3-5"
         xml:space="preserve"><flowRegion
           id="flowRegion6720-2-9-0-6-7"><rect
             y="167.92552"
             x="56.063465"
             height="51.012703"
             width="117.68277"
             id="rect6722-0-2-9-8-0" /></flowRegion><flowPara
           style="font-size:16px"
           id="flowPara6724-6-1-5-3-3">σ<flowSpan
   id="flowSpan6838-4-4"
   style="font-size:64.99999762%;baseline-shift:super">A</flowSpan></flowPara></flowRoot>      <flowRoot
         transform="matrix(0.13724896,0,0,0.13724896,97.3892,46.369615)"
         style="font-style:normal;font-weight:normal;font-size:40px;line-height:1.25;font-family:sans-serif;letter-spacing:0px;word-spacing:0px;fill:#000000;fill-opacity:1;stroke:none"
         id="flowRoot6718-4-1-5-5-9-3"
         xml:space="preserve"><flowRegion
           id="flowRegion6720-2-9-0-7-3-26"><rect
             y="167.92552"
             x="56.063465"
             height="51.012703"
             width="117.68277"
             id="rect6722-0-2-9-52-4-7" /></flowRegion><flowPara
           style="font-size:16px"
           id="flowPara6724-6-1-5-5-9-5">2</flowPara></flowRoot>    </g>
    <flowRoot
       xml:space="preserve"
       id="flowRoot7073-7"
       style="font-style:normal;font-weight:normal;font-size:40px;line-height:1.25;font-family:sans-serif;letter-spacing:0px;word-spacing:0px;fill:#000000;fill-opacity:1;stroke:none"
       transform="matrix(0.04638169,0,0,0.04638169,74.946145,76.395282)"
       inkscape:export-xdpi="300"
       inkscape:export-ydpi="300"><flowRegion
         id="flowRegion7075-7"><rect
           id="rect7077-79"
           width="87.14286"
           height="57.857143"
           x="116.78571"
           y="221.09111" /></flowRegion><flowPara
         id="flowPara7079-4">x</flowPara></flowRoot>  </g>
</svg>
