2019-07-21 15:31:52.011375,0.244,0.169,0.159,0,
2019-07-21 15:31:52.107471,0.206,0.145,0.187,0,
2019-07-21 15:31:52.206018,0.201,0.183,0.211,0,
2019-07-21 15:31:52.311664,0,0.159,0,0,
2019-07-21 15:31:52.405716,0.248,0.169,0.215,0,
2019-07-21 15:31:52.507712,0.262,0,0.169,0,
2019-07-21 15:31:52.607672,0.211,0.136,0.173,0,
2019-07-21 15:31:52.707492,0.258,0,0.173,0,
2019-07-21 15:31:52.807655,0.253,0.187,0.201,0,
2019-07-21 15:31:52.907463,0.239,0,0.178,0,
2019-07-21 15:31:53.007706,0.267,0.159,0.192,0,
2019-07-21 15:31:53.107745,0.234,0.154,0,0,
2019-07-21 15:31:53.207380,0.248,0.173,0.201,0,
2019-07-21 15:31:53.307662,0.29,0.183,0.178,0,
2019-07-21 15:31:53.407336,0.272,0.15,0.173,0,
2019-07-21 15:31:53.507711,0.244,0.187,0.164,0,
2019-07-21 15:31:53.607761,0.206,0.145,0.206,0,
2019-07-21 15:31:53.805570,0,0.136,0,0,
2019-07-21 15:31:53.905969,0.258,0.154,0.169,0,
2019-07-21 15:31:54.007597,0.211,0.154,0.178,0,
2019-07-21 15:31:54.111915,0.23,0.183,0.173,0,
2019-07-21 15:31:54.207452,0.192,0.145,0.183,0,
2019-07-21 15:31:54.307734,0.234,0.164,0.169,0,
2019-07-21 15:31:54.407737,0.258,0.154,0.159,0,
2019-07-21 15:31:54.507627,0.253,0.192,0.187,0,
2019-07-21 15:31:54.607796,0.267,0.126,0.197,0,
2019-07-21 15:31:54.707709,0.267,0.201,0.178,0,
2019-07-21 15:31:54.807876,0.215,0.154,0.201,0,
2019-07-21 15:31:54.906389,0.281,0.201,0.192,0,
2019-07-21 15:31:55.012000,0,0.197,0,0,
2019-07-21 15:31:55.103945,0.23,0.159,0.173,0,
2019-07-21 15:31:55.207631,0.267,0.169,0.173,0,
2019-07-21 15:31:55.307582,0.225,0.154,0.197,0,
2019-07-21 15:31:55.405821,0.211,0.159,0.183,0,
2019-07-21 15:31:55.507817,0.281,0.183,0.164,0,
2019-07-21 15:31:55.607826,0.197,0.136,0.225,0,
2019-07-21 15:31:55.707788,0.244,0.169,0.183,0,
2019-07-21 15:31:55.807383,0.178,0.164,0.183,0,
2019-07-21 15:31:55.907731,0.262,0.126,0.164,0,
2019-07-21 15:31:56.007379,0.276,0.14,0.178,0,
2019-07-21 15:31:56.107553,0.23,0.192,0.169,0,
2019-07-21 15:31:56.211635,0.23,0.14,0.183,0,
2019-07-21 15:31:56.307736,0.272,0.164,0.154,0,
2019-07-21 15:31:56.405695,0.267,0.117,0.183,0,
2019-07-21 15:31:56.507332,0.276,0.15,0.173,0,
2019-07-21 15:31:56.607773,0.286,0.173,0.164,0,
2019-07-21 15:31:56.707755,0.244,0.169,0.178,0,
2019-07-21 15:31:56.807934,0.258,0.187,0.164,0,
2019-07-21 15:31:56.907757,0.295,0.211,0.15,0,
2019-07-21 15:31:57.007570,0.22,0.15,0.173,0,
2019-07-21 15:31:57.105846,0.234,0,0.197,0,
2019-07-21 15:31:57.207679,0.262,0.145,0.192,0,
2019-07-21 15:31:57.307986,0.281,0.164,0.169,0,
2019-07-21 15:31:57.407695,0,0.145,0.173,0,
2019-07-21 15:31:57.507723,0.244,0.169,0.183,0,
2019-07-21 15:31:57.607829,0.29,0.183,0.201,0,
2019-07-21 15:31:57.707648,0.253,0.159,0.187,0,
2019-07-21 15:31:57.808253,0.234,0.15,0.173,0,
2019-07-21 15:31:57.907742,0.22,0.173,0.197,0,
2019-07-21 15:31:58.008627,0.253,0.14,0.197,0,
2019-07-21 15:31:58.105601,0.281,0.164,0.192,0,
2019-07-21 15:31:58.207660,0.272,0.192,0.183,0,
2019-07-21 15:31:58.310597,0.23,0.187,0.183,0,
2019-07-21 15:31:58.407877,0.192,0.14,0.178,0,
2019-07-21 15:31:58.506019,0.244,0.159,0.183,0,
2019-07-21 15:31:58.608001,0.253,0.159,0.183,0,
2019-07-21 15:31:58.705328,0.272,0.154,0.183,0,
2019-07-21 15:31:58.807406,0.23,0.164,0.187,0,
2019-07-21 15:31:58.908102,0.23,0.187,0.169,0,
2019-07-21 15:31:59.006036,0,0.173,0.187,0,
2019-07-21 15:31:59.105513,0.183,0.131,0.164,0,
2019-07-21 15:31:59.207922,0.211,0.159,0.192,0,
2019-07-21 15:31:59.307807,0.234,0.159,0.173,0,
2019-07-21 15:31:59.408232,0.29,0.131,0.169,0,
2019-07-21 15:31:59.506958,0.239,0.122,0.159,0,
2019-07-21 15:31:59.605174,0,0.126,0.192,0,
2019-07-21 15:31:59.807847,0.248,0.122,0.173,0,
2019-07-21 15:31:59.908523,0.276,0.169,0.169,0,
2019-07-21 15:32:00.008943,0.3,0.164,0.183,0,
2019-07-21 15:32:00.107837,0.215,0.136,0.173,0,
2019-07-21 15:32:00.303960,0.276,0.136,0.178,0,
2019-07-21 15:32:00.411524,0.239,0.159,0.183,0,
2019-07-21 15:32:00.507711,0.248,0.164,0,0,
2019-07-21 15:32:00.605633,0.244,0.178,0.159,0,
2019-07-21 15:32:00.705416,0.248,0.183,0.154,0,
2019-07-21 15:32:00.807871,0.239,0.169,0.159,0,
2019-07-21 15:32:00.907900,0.22,0.145,0.173,0,
2019-07-21 15:32:01.006428,0.211,0.145,0.187,0,
2019-07-21 15:32:01.106381,0.286,0.136,0.192,0,
2019-07-21 15:32:01.205339,0.258,0.159,0.206,0,
2019-07-21 15:32:01.307611,0.23,0.173,0.178,0,
2019-07-21 15:32:01.405927,0.211,0.183,0.178,0,
2019-07-21 15:32:01.507724,0.248,0.15,0.169,0,
2019-07-21 15:32:01.607893,0.253,0.159,0.169,0,
2019-07-21 15:32:01.705545,0.262,0.136,0.173,0,
2019-07-21 15:32:01.807576,0.23,0,0.154,0,
2019-07-21 15:32:01.908116,0.276,0.178,0.178,0,
2019-07-21 15:32:02.005867,0.253,0.131,0.178,0,
2019-07-21 15:32:02.108330,0.253,0.117,0.197,0,
2019-07-21 15:32:02.207941,0.281,0.169,0.187,0,
2019-07-21 15:32:02.307646,0.215,0.136,0.187,0,
2019-07-21 15:32:02.408045,0.29,0.136,0.169,0,
2019-07-21 15:32:02.511409,0.215,0.183,0.197,0,
2019-07-21 15:32:02.608248,0.267,0.164,0.178,0,
2019-07-21 15:32:02.707453,0,0.154,0.192,0,
2019-07-21 15:32:02.906480,0.201,0.154,0.178,0,
2019-07-21 15:32:03.007973,0.29,0.178,0.206,0,
2019-07-21 15:32:03.107973,0.23,0.169,0.169,0,
2019-07-21 15:32:03.208220,0.197,0.178,0.187,0,
2019-07-21 15:32:03.305771,0.262,0.108,0.187,0,
2019-07-21 15:32:03.405686,0.225,0.122,0.169,0,
2019-07-21 15:32:03.507864,0.253,0.145,0.178,0,
2019-07-21 15:32:03.607861,0,0.126,0.173,0,
2019-07-21 15:32:03.807526,0.286,0.131,0.211,0,
2019-07-21 15:32:03.907522,0.234,0,0.197,0,
2019-07-21 15:32:04.005984,0.276,0,0.183,0,
2019-07-21 15:32:04.105837,0.276,0.154,0.187,0,
2019-07-21 15:32:04.207194,0.262,0.178,0.169,0,
2019-07-21 15:32:04.309654,0,0.145,0,0,
2019-07-21 15:32:04.404446,0.206,0.183,0.183,0,
2019-07-21 15:32:04.505625,0.234,0.173,0.178,0,
2019-07-21 15:32:04.612065,0.258,0.14,0.169,0,
2019-07-21 15:32:04.706233,0.253,0.136,0.169,0,
2019-07-21 15:32:04.806765,0.244,0.14,0.178,0,
2019-07-21 15:32:04.908425,0.225,0.173,0.178,0,
2019-07-21 15:32:05.007452,0.267,0.154,0.197,0,
2019-07-21 15:32:05.107760,0.267,0.164,0.187,0,
2019-07-21 15:32:05.207869,0.267,0.159,0.178,0,
2019-07-21 15:32:05.307785,0.23,0.173,0.187,0,
2019-07-21 15:32:05.407330,0.276,0.122,0.164,0,
2019-07-21 15:32:05.507770,0.262,0.154,0.164,0,
2019-07-21 15:32:05.607999,0.215,0.173,0.187,0,
2019-07-21 15:32:05.706277,0.253,0.145,0.178,0,
2019-07-21 15:32:05.807932,0.262,0.178,0.211,0,
2019-07-21 15:32:05.905522,0.248,0.136,0.183,0,
2019-07-21 15:32:06.007493,0.267,0.169,0.187,0,
2019-07-21 15:32:06.107983,0.234,0.178,0.164,0,
2019-07-21 15:32:06.207507,0.267,0.131,0.164,0,
2019-07-21 15:32:06.305995,0.29,0.159,0.187,0,
2019-07-21 15:32:06.407764,0.248,0.192,0.173,0,
2019-07-21 15:32:06.505632,0.253,0.192,0.169,0,
2019-07-21 15:32:06.606088,0.234,0.131,0.192,0,
2019-07-21 15:32:06.709663,0.239,0.117,0.187,0,
2019-07-21 15:32:06.807977,0.253,0.173,0.159,0,
2019-07-21 15:32:06.908112,0.272,0.112,0.178,0,
2019-07-21 15:32:07.007518,0.258,0.15,0.187,0,
2019-07-21 15:32:07.108119,0.211,0.15,0.206,0,
2019-07-21 15:32:07.205599,0.262,0.183,0.173,0,
2019-07-21 15:32:07.306087,0.272,0.136,0.197,0,
2019-07-21 15:32:07.408289,0.295,0.178,0.206,0,
2019-07-21 15:32:07.506184,0.253,0.122,0.159,0,
2019-07-21 15:32:07.605710,0.262,0.169,0.178,0,
2019-07-21 15:32:07.707954,0.262,0.178,0.192,0,
2019-07-21 15:32:07.806541,0.267,0.145,0.169,0,
2019-07-21 15:32:07.906026,0.281,0.145,0.187,0,
2019-07-21 15:32:08.008079,0.276,0.178,0.169,0,
2019-07-21 15:32:08.106440,0.272,0.201,0.201,0,
2019-07-21 15:32:08.208067,0.234,0,0.173,0,
2019-07-21 15:32:08.307850,0.272,0.192,0.178,0,
2019-07-21 15:32:08.407573,0.286,0.164,0.192,0,
2019-07-21 15:32:08.505626,0.201,0.122,0.215,0,
2019-07-21 15:32:08.606117,0.244,0.122,0.173,0,
2019-07-21 15:32:08.706155,0.197,0.136,0.169,0,
2019-07-21 15:32:08.812773,0.201,0.178,0.173,0,
2019-07-21 15:32:08.907758,0.253,0.173,0.183,0,
2019-07-21 15:32:09.007786,0.23,0.15,0.192,0,
2019-07-21 15:32:09.107700,0.244,0.159,0.183,0,
2019-07-21 15:32:09.208057,0.276,0.131,0.164,0,
2019-07-21 15:32:09.308166,0.262,0.122,0.178,0,
2019-07-21 15:32:09.405873,0.197,0,0.164,0,
2019-07-21 15:32:09.506491,0.262,0.093,0.192,0,
2019-07-21 15:32:09.608105,0.234,0.103,0.183,0,
2019-07-21 15:32:09.708629,0.234,0.15,0.173,0,
2019-07-21 15:32:09.806187,0.248,0.183,0.187,0,
2019-07-21 15:32:09.907619,0.267,0.14,0.173,0,
2019-07-21 15:32:10.007679,0.197,0.14,0.187,0,
2019-07-21 15:32:10.108101,0.253,0.126,0.183,0,
2019-07-21 15:32:10.207855,0.248,0.169,0.173,0,
2019-07-21 15:32:10.305796,0.244,0.14,0.164,0,
2019-07-21 15:32:10.405933,0.258,0.159,0.178,0,
2019-07-21 15:32:10.510523,0,0.164,0,0,
2019-07-21 15:32:10.603801,0,0.15,0.183,0,
2019-07-21 15:32:10.806100,0.248,0.169,0.187,0,
2019-07-21 15:32:10.912035,0.239,0.159,0.187,0,
2019-07-21 15:32:11.006089,0.225,0.15,0.183,0,
2019-07-21 15:32:11.107711,0.286,0.136,0.164,0,
2019-07-21 15:32:11.206160,0.215,0.15,0.206,0,
2019-07-21 15:32:11.307693,0.276,0.183,0.178,0,
2019-07-21 15:32:11.405474,0.295,0.183,0.192,0,
2019-07-21 15:32:11.506159,0.239,0.131,0.197,0,
2019-07-21 15:32:11.607974,0.23,0.169,0.206,0,
2019-07-21 15:32:11.707680,0.262,0.178,0.192,0,
2019-07-21 15:32:11.807598,0.262,0.164,0.183,0,
2019-07-21 15:32:11.908119,0.276,0.159,0.192,0,
2019-07-21 15:32:12.008139,0.234,0.159,0.211,0,
2019-07-21 15:32:12.107643,0,0.173,0.187,0,
2019-07-21 15:32:12.308993,0.258,0.164,0.187,0,
2019-07-21 15:32:12.410531,0,0.164,0,0,
2019-07-21 15:32:12.504128,0.169,0.173,0.183,0,
2019-07-21 15:32:12.605826,0.258,0,0.173,0,
2019-07-21 15:32:12.708131,0.286,0.126,0.154,0,
2019-07-21 15:32:12.807813,0.234,0.178,0.183,0,
2019-07-21 15:32:12.905674,0.225,0.145,0.178,0,
2019-07-21 15:32:13.010233,0.225,0.183,0.164,0,
2019-07-21 15:32:13.107710,0.239,0.159,0.183,0,
2019-07-21 15:32:13.207887,0.272,0.159,0.187,0,
2019-07-21 15:32:13.306636,0.234,0.164,0.169,0,
2019-07-21 15:32:13.406134,0.211,0.15,0,0,
2019-07-21 15:32:13.507237,0.239,0.154,0.169,0,
2019-07-21 15:32:13.607869,0.211,0.154,0.178,0,
2019-07-21 15:32:13.706360,0.234,0.145,0.187,0,
2019-07-21 15:32:13.806229,0.258,0.15,0.169,0,
2019-07-21 15:32:13.908000,0.23,0.164,0.164,0,
2019-07-21 15:32:14.007832,0.258,0.154,0.15,0,
2019-07-21 15:32:14.110317,0,0.178,0,0,
2019-07-21 15:32:14.204128,0.22,0.154,0.192,0,
2019-07-21 15:32:14.308397,0.276,0.178,0.173,0,
2019-07-21 15:32:14.408111,0.244,0.159,0.192,0,
2019-07-21 15:32:14.507891,0.253,0.15,0.164,0,
2019-07-21 15:32:14.605834,0.225,0.154,0.178,0,
2019-07-21 15:32:14.706138,0.281,0.164,0.169,0,
2019-07-21 15:32:14.805851,0.197,0.211,0.183,0,
2019-07-21 15:32:14.907748,0.272,0.145,0.192,0,
2019-07-21 15:32:15.008234,0.23,0.164,0.192,0,
2019-07-21 15:32:15.109951,0.267,0.14,0.201,0,
2019-07-21 15:32:15.208243,0.201,0.15,0.183,0,
2019-07-21 15:32:15.308559,0.22,0.169,0.178,0,
2019-07-21 15:32:15.408237,0.173,0.178,0.192,0,
2019-07-21 15:32:15.510199,0,0.173,0,0,
2019-07-21 15:32:15.604137,0.206,0.164,0.187,0,
2019-07-21 15:32:15.707902,0.197,0.154,0.178,0,
2019-07-21 15:32:15.807875,0.225,0.169,0.173,0,
2019-07-21 15:32:15.908097,0.248,0.169,0.169,0,
2019-07-21 15:32:16.008214,0.178,0.164,0.178,0,
2019-07-21 15:32:16.105921,0.23,0.15,0.178,0,
2019-07-21 15:32:16.206311,0.258,0,0.178,0,
2019-07-21 15:32:16.312490,0.234,0.15,0.183,0,
2019-07-21 15:32:16.407752,0.211,0.173,0.178,0,
2019-07-21 15:32:16.508136,0.258,0.183,0.192,0,
2019-07-21 15:32:16.606359,0.248,0.187,0.206,0,
2019-07-21 15:32:16.706827,0.225,0.173,0.201,0,
2019-07-21 15:32:16.807833,0.286,0.15,0.183,0,
2019-07-21 15:32:16.907720,0.234,0.126,0.197,0,
2019-07-21 15:32:17.006393,0.267,0.178,0.178,0,
2019-07-21 15:32:17.105556,0.22,0.178,0.197,0,
2019-07-21 15:32:17.210050,0.276,0.164,0.201,0,
2019-07-21 15:32:17.309132,0.244,0.14,0.154,0,
2019-07-21 15:32:17.408341,0.23,0.178,0.206,0,
2019-07-21 15:32:17.505760,0.262,0.145,0.178,0,
2019-07-21 15:32:17.607846,0.276,0.15,0.183,0,
2019-07-21 15:32:17.706203,0.197,0.103,0,0,
2019-07-21 15:32:17.806281,0.253,0.159,0,0,
2019-07-21 15:32:17.907160,0.253,0.136,0.201,0,
2019-07-21 15:32:18.008360,0.244,0.178,0.206,0,
2019-07-21 15:32:18.106319,0.23,0.201,0.183,0,
2019-07-21 15:32:18.207934,0.225,0.154,0.197,0,
2019-07-21 15:32:18.308162,0.262,0.159,0.169,0,
2019-07-21 15:32:18.405935,0.253,0.14,0.187,0,
2019-07-21 15:32:18.508194,0.215,0.145,0.178,0,
2019-07-21 15:32:18.606257,0,0.178,0.197,0,
2019-07-21 15:32:18.806314,0.239,0.164,0.187,0,
2019-07-21 15:32:18.908249,0.23,0.187,0.164,0,
2019-07-21 15:32:19.006278,0.276,0.192,0.169,0,
2019-07-21 15:32:19.105796,0.276,0.159,0.178,0,
2019-07-21 15:32:19.206205,0.215,0.173,0.169,0,
2019-07-21 15:32:19.310787,0.211,0.164,0.197,0,
2019-07-21 15:32:19.406326,0.276,0.192,0.159,0,
2019-07-21 15:32:19.506517,0.258,0.154,0.192,0,
2019-07-21 15:32:19.607880,0.23,0.159,0.187,0,
2019-07-21 15:32:19.706066,0.239,0.159,0.211,0,
2019-07-21 15:32:19.810514,0,0.178,0,0,
2019-07-21 15:32:19.904588,0.276,0.173,0.187,0,
2019-07-21 15:32:20.006335,0.244,0.154,0.183,0,
2019-07-21 15:32:20.107928,0.22,0.15,0.178,0,
2019-07-21 15:32:20.206045,0.267,0.183,0.206,0,
2019-07-21 15:32:20.306289,0.262,0.15,0.187,0,
2019-07-21 15:32:20.405821,0.239,0,0.192,0,
2019-07-21 15:32:20.508231,0.253,0.15,0.183,0,
2019-07-21 15:32:20.606383,0.253,0.169,0.173,0,
2019-07-21 15:32:20.708406,0.258,0.145,0.192,0,
2019-07-21 15:32:20.806338,0.262,0.173,0.178,0,
2019-07-21 15:32:20.905930,0.281,0.183,0.169,0,
2019-07-21 15:32:21.006335,0.215,0.14,0,0,
2019-07-21 15:32:21.108281,0.215,0.183,0,0,
2019-07-21 15:32:21.205861,0.244,0.173,0,0,
2019-07-21 15:32:21.306428,0.248,0.15,0.154,0,
2019-07-21 15:32:21.412613,0,0.178,0,0,
2019-07-21 15:32:21.504261,0.187,0.178,0.192,0,
2019-07-21 15:32:21.608380,0.295,0.173,0.154,0,
2019-07-21 15:32:21.706721,0.253,0,0.192,0,
2019-07-21 15:32:21.804887,0.23,0,0.173,0,
2019-07-21 15:32:21.907615,0.267,0.183,0.173,0,
2019-07-21 15:32:22.006034,0.23,0.169,0.187,0,
2019-07-21 15:32:22.106305,0.23,0.159,0.187,0,
2019-07-21 15:32:22.206258,0.272,0.159,0.173,0,
2019-07-21 15:32:22.306217,0.248,0.164,0.169,0,
2019-07-21 15:32:22.406364,0.276,0.187,0.183,0,
2019-07-21 15:32:22.506179,0.258,0.178,0.197,0,
2019-07-21 15:32:22.606323,0.248,0.154,0.206,0,
2019-07-21 15:32:22.706346,0.197,0.15,0.183,0,
2019-07-21 15:32:22.806226,0.215,0.164,0,0,
2019-07-21 15:32:22.905710,0.239,0.178,0.178,0,
2019-07-21 15:32:23.005709,0.239,0.14,0.201,0,
2019-07-21 15:32:23.106385,0.197,0.164,0.178,0,
2019-07-21 15:32:23.206434,0.276,0.112,0.187,0,
2019-07-21 15:32:23.306109,0.258,0.159,0.183,0,
2019-07-21 15:32:23.406513,0.253,0.154,0.187,0,
2019-07-21 15:32:23.511563,0.3,0.131,0.197,0,
2019-07-21 15:32:23.606331,0.248,0.15,0.183,0,
2019-07-21 15:32:23.706464,0.225,0.183,0.173,0,
2019-07-21 15:32:23.806174,0.22,0.15,0.201,0,
2019-07-21 15:32:23.906254,0.258,0.178,0.192,0,
2019-07-21 15:32:24.006497,0.22,0.15,0.178,0,
2019-07-21 15:32:24.110307,0,0.173,0,0,
2019-07-21 15:32:24.204838,0.253,0.136,0.192,0,
2019-07-21 15:32:24.306728,0.239,0.159,0.183,0,
2019-07-21 15:32:24.406015,0.248,0.183,0.169,0,
2019-07-21 15:32:24.506819,0.267,0.136,0.169,0,
2019-07-21 15:32:24.606473,0.239,0.154,0.169,0,
2019-07-21 15:32:24.706291,0.258,0.154,0.183,0,
2019-07-21 15:32:24.806616,0.23,0.145,0.154,0,
2019-07-21 15:32:24.906661,0.286,0.164,0.201,0,
2019-07-21 15:32:25.103945,0.225,0.173,0.178,0,
2019-07-21 15:32:25.206525,0.253,0.187,0.192,0,
2019-07-21 15:32:25.305722,0.258,0.136,0.206,0,
2019-07-21 15:32:25.406207,0.258,0.173,0.173,0,
2019-07-21 15:32:25.506627,0.305,0.164,0.173,0,
2019-07-21 15:32:25.610072,0.258,0.173,0.178,0,
2019-07-21 15:32:25.706069,0.253,0.164,0.206,0,
2019-07-21 15:32:25.806071,0.206,0.159,0.178,0,
2019-07-21 15:32:25.906427,0.248,0.126,0.183,0,
2019-07-21 15:32:26.006033,0.225,0.145,0.173,0,
2019-07-21 15:32:26.106375,0.258,0.187,0.187,0,
2019-07-21 15:32:26.206500,0.239,0.169,0.178,0,
2019-07-21 15:32:26.306143,0.201,0.15,0.169,0,
2019-07-21 15:32:26.406623,0.262,0.126,0.173,0,
2019-07-21 15:32:26.506380,0.225,0.159,0.192,0,
2019-07-21 15:32:26.606527,0.286,0.131,0.164,0,
2019-07-21 15:32:26.706283,0.295,0.131,0.159,0,
2019-07-21 15:32:26.806074,0.29,0.187,0.173,0,
2019-07-21 15:32:26.906213,0.211,0.126,0.173,0,
2019-07-21 15:32:27.006570,0.253,0.169,0.169,0,
2019-07-21 15:32:27.106637,0.187,0.154,0.169,0,
2019-07-21 15:32:27.206135,0.295,0.112,0.169,0,
2019-07-21 15:32:27.306537,0.281,0.173,0.192,0,
2019-07-21 15:32:27.405801,0.258,0.154,0.206,0,
2019-07-21 15:32:27.506461,0.262,0.211,0.183,0,
2019-07-21 15:32:27.606430,0.215,0.164,0.215,0,
2019-07-21 15:32:27.710730,0.239,0.112,0.173,0,
2019-07-21 15:32:27.806353,0.248,0.187,0.206,0,
2019-07-21 15:32:27.906435,0.244,0.192,0.178,0,
2019-07-21 15:32:28.006176,0.215,0.173,0.178,0,
2019-07-21 15:32:28.106379,0.234,0.183,0.187,0,
2019-07-21 15:32:28.206574,0.201,0.187,0.187,0,
2019-07-21 15:32:28.306047,0.305,0,0.178,0,
2019-07-21 15:32:28.406520,0.239,0,0.164,0,
2019-07-21 15:32:28.506233,0.267,0.183,0.169,0,
2019-07-21 15:32:28.606186,0.211,0.14,0.192,0,
2019-07-21 15:32:28.706368,0.225,0.192,0.173,0,
2019-07-21 15:32:28.806175,0.272,0.14,0.183,0,
2019-07-21 15:32:28.906151,0.23,0.164,0.206,0,
2019-07-21 15:32:29.006480,0.225,0.15,0.211,0,
2019-07-21 15:32:29.106138,0.286,0.192,0.183,0,
2019-07-21 15:32:29.206418,0.253,0.164,0.201,0,
2019-07-21 15:32:29.306501,0.272,0.173,0.183,0,
2019-07-21 15:32:29.406664,0.253,0.122,0.173,0,
2019-07-21 15:32:29.506532,0.248,0.169,0.178,0,
2019-07-21 15:32:29.606255,0.267,0.154,0.183,0,
2019-07-21 15:32:29.706728,0.248,0.178,0.173,0,
2019-07-21 15:32:29.810344,0.244,0.15,0.187,0,
2019-07-21 15:32:29.906824,0.197,0.159,0.15,0,
2019-07-21 15:32:30.006340,0.3,0.15,0.187,0,
2019-07-21 15:32:30.106579,0.239,0.145,0.183,0,
2019-07-21 15:32:30.206553,0.244,0.169,0,0,
2019-07-21 15:32:30.306275,0.262,0.211,0,0,
2019-07-21 15:32:30.406252,0.187,0.178,0.178,0,
2019-07-21 15:32:30.506315,0.201,0.173,0.201,0,
2019-07-21 15:32:30.606498,0.22,0.164,0.169,0,
2019-07-21 15:32:30.706677,0.276,0.136,0.206,0,
2019-07-21 15:32:30.806143,0.244,0.178,0.206,0,
2019-07-21 15:32:30.906359,0.272,0.178,0.169,0,
2019-07-21 15:32:31.006310,0.201,0.159,0.178,0,
2019-07-21 15:32:31.106571,0.258,0.187,0.187,0,
2019-07-21 15:32:31.206275,0.22,0.159,0.197,0,
2019-07-21 15:32:31.306315,0.267,0.201,0.183,0,
2019-07-21 15:32:31.406450,0.244,0,0.187,0,
2019-07-21 15:32:31.505630,0.197,0,0.173,0,
2019-07-21 15:32:31.606075,0.253,0.169,0.187,0,
2019-07-21 15:32:31.706494,0.206,0.169,0.197,0,
2019-07-21 15:32:31.806259,0.253,0.145,0.197,0,
2019-07-21 15:32:31.910578,0.272,0.159,0.169,0,
2019-07-21 15:32:32.006780,0.258,0.154,0.154,0,
2019-07-21 15:32:32.106231,0.295,0.169,0.187,0,
2019-07-21 15:32:32.206708,0.29,0.126,0.187,0,
2019-07-21 15:32:32.306540,0.29,0.164,0.169,0,
2019-07-21 15:32:32.406398,0.248,0.178,0.197,0,
2019-07-21 15:32:32.506860,0.239,0.164,0.183,0,
2019-07-21 15:32:32.606106,0.262,0.154,0.192,0,
2019-07-21 15:32:32.710539,0,0.131,0,0,
2019-07-21 15:32:32.804766,0.272,0.154,0,0,
2019-07-21 15:32:32.906334,0.262,0.187,0,0,
2019-07-21 15:32:33.006560,0.258,0.159,0.187,0,
2019-07-21 15:32:33.106251,0.206,0.117,0.183,0,
2019-07-21 15:32:33.206724,0.281,0.173,0.187,0,
2019-07-21 15:32:33.306210,0.23,0.145,0.178,0,
2019-07-21 15:32:33.406403,0.211,0.164,0,0,
2019-07-21 15:32:33.506525,0.267,0.183,0,0,
2019-07-21 15:32:33.606231,0.23,0.173,0.183,0,
2019-07-21 15:32:33.706754,0.248,0.159,0.197,0,
2019-07-21 15:32:33.806433,0.253,0.169,0.169,0,
2019-07-21 15:32:33.906634,0.248,0.154,0.173,0,
2019-07-21 15:32:34.010255,0.276,0.154,0.187,0,
2019-07-21 15:32:34.106260,0.215,0.154,0.183,0,
2019-07-21 15:32:34.206644,0.239,0.169,0.178,0,
2019-07-21 15:32:34.306441,0.253,0.159,0.173,0,
2019-07-21 15:32:34.406698,0.258,0.164,0.183,0,
2019-07-21 15:32:34.506744,0.211,0.187,0.173,0,
2019-07-21 15:32:34.606279,0.192,0.145,0.173,0,
2019-07-21 15:32:34.706787,0.248,0.14,0.197,0,
2019-07-21 15:32:34.806255,0.258,0.154,0.159,0,
2019-07-21 15:32:34.906514,0.253,0.131,0.187,0,
2019-07-21 15:32:35.006890,0.262,0.159,0.192,0,
2019-07-21 15:32:35.106287,0.272,0.154,0.169,0,
2019-07-21 15:32:35.206639,0.23,0.159,0.201,0,
2019-07-21 15:32:35.306506,0.22,0.164,0.206,0,
2019-07-21 15:32:35.406327,0.206,0.159,0.169,0,
2019-07-21 15:32:35.506344,0.22,0.122,0.192,0,
2019-07-21 15:32:35.606723,0.248,0.131,0.183,0,
2019-07-21 15:32:35.706681,0.262,0.178,0.178,0,
2019-07-21 15:32:35.806167,0.281,0.164,0.183,0,
2019-07-21 15:32:35.906629,0.187,0.15,0.192,0,
2019-07-21 15:32:36.006699,0.234,0,0.169,0,
2019-07-21 15:32:36.110291,0.248,0.169,0.169,0,
2019-07-21 15:32:36.206428,0.262,0.178,0.187,0,
2019-07-21 15:32:36.306287,0.187,0.169,0.178,0,
2019-07-21 15:32:36.406560,0.276,0.178,0.178,0,
2019-07-21 15:32:36.506671,0.262,0.164,0.178,0,
2019-07-21 15:32:36.606518,0.225,0.164,0.178,0,
2019-07-21 15:32:36.706706,0.248,0.108,0.169,0,
2019-07-21 15:32:36.806715,0.248,0.15,0.173,0,
2019-07-21 15:32:36.906257,0.244,0.154,0.169,0,
2019-07-21 15:32:37.006378,0.253,0.136,0.187,0,
2019-07-21 15:32:37.106224,0.253,0.159,0.159,0,
2019-07-21 15:32:37.206231,0.187,0.112,0.178,0,
2019-07-21 15:32:37.306692,0.244,0.145,0.178,0,
2019-07-21 15:32:37.406243,0.267,0.131,0.178,0,
2019-07-21 15:32:37.506672,0.272,0.126,0.192,0,
2019-07-21 15:32:37.606705,0.3,0.187,0.178,0,
2019-07-21 15:32:37.706537,0.262,0.178,0.169,0,
2019-07-21 15:32:37.806598,0.248,0.178,0.211,0,
2019-07-21 15:32:37.906442,0.206,0.169,0.211,0,
2019-07-21 15:32:38.006758,0.225,0.178,0.159,0,
2019-07-21 15:32:38.106285,0.272,0.183,0.178,0,
2019-07-21 15:32:38.210677,0.23,0.206,0.173,0,
2019-07-21 15:32:38.307039,0.262,0.154,0.178,0,
2019-07-21 15:32:38.406599,0.201,0.159,0.178,0,
2019-07-21 15:32:38.506830,0.225,0.187,0.159,0,
2019-07-21 15:32:38.606284,0.267,0.126,0.178,0,
2019-07-21 15:32:38.706699,0.262,0.183,0.159,0,
2019-07-21 15:32:38.806488,0.281,0.145,0,0,
2019-07-21 15:32:38.906777,0.244,0.145,0,0,
2019-07-21 15:32:39.006515,0.262,0.154,0.178,0,
2019-07-21 15:32:39.106776,0.253,0.159,0.183,0,
2019-07-21 15:32:39.206338,0.244,0.173,0.192,0,
2019-07-21 15:32:39.306787,0.258,0.169,0.183,0,
2019-07-21 15:32:39.410927,0,0.15,0,0,
2019-07-21 15:32:39.504443,0.197,0.154,0.183,0,
2019-07-21 15:32:39.608569,0,0.145,0,0,
2019-07-21 15:32:39.705167,0.276,0.164,0.178,0,
2019-07-21 15:32:39.806509,0.248,0.117,0.192,0,
2019-07-21 15:32:39.906042,0.253,0.136,0.173,0,
2019-07-21 15:32:40.006916,0.22,0.169,0.178,0,
2019-07-21 15:32:40.106862,0.281,0.15,0.169,0,
2019-07-21 15:32:40.207152,0.253,0.192,0.178,0,
2019-07-21 15:32:40.310936,0.272,0.178,0.183,0,
2019-07-21 15:32:40.406735,0.262,0.159,0.178,0,
2019-07-21 15:32:40.506528,0.248,0.164,0.169,0,
2019-07-21 15:32:40.606508,0.244,0.159,0.178,0,
2019-07-21 15:32:40.706748,0.234,0.154,0.187,0,
2019-07-21 15:32:40.806792,0.201,0.173,0.173,0,
2019-07-21 15:32:40.906348,0.258,0.169,0.197,0,
2019-07-21 15:32:41.006747,0.22,0.173,0.197,0,
2019-07-21 15:32:41.107156,0.215,0.15,0.183,0,
2019-07-21 15:32:41.207126,0.187,0.164,0.183,0,
2019-07-21 15:32:41.306688,0.187,0.183,0.183,0,
2019-07-21 15:32:41.406778,0.23,0.145,0.183,0,
2019-07-21 15:32:41.506421,0.23,0.154,0.192,0,
2019-07-21 15:32:41.606757,0.272,0.136,0.197,0,
2019-07-21 15:32:41.706482,0.22,0.173,0.201,0,
2019-07-21 15:32:41.806463,0.206,0.173,0.22,0,
2019-07-21 15:32:41.906563,0.276,0.145,0.187,0,
2019-07-21 15:32:42.006709,0.169,0.178,0.187,0,
2019-07-21 15:32:42.106936,0.29,0.154,0.183,0,
2019-07-21 15:32:42.207004,0.23,0.159,0.173,0,
2019-07-21 15:32:42.306428,0.262,0.173,0.197,0,
2019-07-21 15:32:42.410923,0.262,0.154,0.159,0,
2019-07-21 15:32:42.506696,0.272,0.154,0.173,0,
2019-07-21 15:32:42.606644,0.262,0.164,0.192,0,
2019-07-21 15:32:42.706556,0.253,0.154,0.178,0,
2019-07-21 15:32:42.806494,0.267,0,0.173,0,
2019-07-21 15:32:42.906500,0.234,0.154,0.183,0,
2019-07-21 15:32:43.006505,0.258,0.169,0.201,0,
2019-07-21 15:32:43.106823,0.215,0.178,0.192,0,
2019-07-21 15:32:43.206470,0.276,0.159,0.173,0,
2019-07-21 15:32:43.306383,0.248,0.136,0.206,0,
2019-07-21 15:32:43.406442,0.234,0.187,0.178,0,
2019-07-21 15:32:43.506863,0.267,0.159,0.197,0,
2019-07-21 15:32:43.606874,0.253,0.131,0.183,0,
2019-07-21 15:32:43.706387,0.281,0.159,0.225,0,
2019-07-21 15:32:43.806821,0.267,0.14,0.187,0,
2019-07-21 15:32:43.907006,0.258,0.159,0.183,0,
2019-07-21 15:32:44.006556,0.215,0.187,0.178,0,
2019-07-21 15:32:44.106940,0.23,0.145,0.183,0,
2019-07-21 15:32:44.206636,0.234,0.169,0.173,0,
2019-07-21 15:32:44.306964,0.276,0.183,0.192,0,
2019-07-21 15:32:44.407096,0.225,0.187,0.178,0,
2019-07-21 15:32:44.510828,0.215,0.15,0.201,0,
2019-07-21 15:32:44.606640,0.192,0.145,0.169,0,
2019-07-21 15:32:44.706581,0.295,0.169,0.178,0,
2019-07-21 15:32:44.806976,0.281,0.154,0.187,0,
2019-07-21 15:32:44.906796,0.295,0.154,0.159,0,
2019-07-21 15:32:45.006817,0.239,0.164,0.173,0,
2019-07-21 15:32:45.106895,0.239,0.15,0.183,0,
2019-07-21 15:32:45.206415,0.215,0.173,0.201,0,
2019-07-21 15:32:45.306548,0.211,0.159,0.164,0,
2019-07-21 15:32:45.406867,0,0.15,0.169,0,
2019-07-21 15:32:45.606779,0.253,0.178,0.178,0,
2019-07-21 15:32:45.706953,0.239,0.178,0.192,0,
2019-07-21 15:32:45.806916,0.234,0.117,0.201,0,
2019-07-21 15:32:45.906098,0.267,0.145,0.169,0,
2019-07-21 15:32:46.006959,0.272,0.14,0.197,0,
2019-07-21 15:32:46.106441,0.267,0.187,0.183,0,
2019-07-21 15:32:46.206598,0.215,0.145,0.169,0,
2019-07-21 15:32:46.307083,0.22,0.145,0.187,0,
2019-07-21 15:32:46.406899,0.234,0.145,0,0,
2019-07-21 15:32:46.506947,0.286,0.131,0,0,
2019-07-21 15:32:46.610511,0.215,0.159,0.173,0,
2019-07-21 15:32:46.706896,0.248,0.126,0.192,0,
2019-07-21 15:32:46.806495,0.272,0.159,0.201,0,
2019-07-21 15:32:46.906986,0.248,0.178,0.183,0,
2019-07-21 15:32:47.006868,0.187,0.183,0.169,0,
2019-07-21 15:32:47.106536,0.258,0.201,0.183,0,
2019-07-21 15:32:47.207339,0.23,0.108,0.183,0,
2019-07-21 15:32:47.306804,0.215,0.169,0.173,0,
2019-07-21 15:32:47.406719,0.244,0.136,0.192,0,
2019-07-21 15:32:47.506550,0.225,0,0.178,0,
2019-07-21 15:32:47.607068,0.253,0.15,0.169,0,
2019-07-21 15:32:47.707040,0,0.145,0.173,0,
2019-07-21 15:32:47.907292,0.211,0.169,0.183,0,
2019-07-21 15:32:48.007005,0.253,0.122,0.192,0,
2019-07-21 15:32:48.106989,0.22,0.178,0.183,0,
2019-07-21 15:32:48.206847,0.244,0.136,0.173,0,
2019-07-21 15:32:48.306938,0.3,0.173,0.178,0,
2019-07-21 15:32:48.406535,0.272,0.169,0.178,0,
2019-07-21 15:32:48.506851,0.267,0.145,0.164,0,
2019-07-21 15:32:48.607242,0.258,0.145,0.197,0,
2019-07-21 15:32:48.710834,0.211,0.159,0.159,0,
2019-07-21 15:32:48.807534,0.281,0.154,0.169,0,
2019-07-21 15:32:48.906982,0.206,0.169,0.178,0,
2019-07-21 15:32:49.006773,0.178,0.159,0.187,0,
2019-07-21 15:32:49.106978,0.253,0.169,0.173,0,
2019-07-21 15:32:49.206865,0.239,0.159,0.178,0,
2019-07-21 15:32:49.306489,0.234,0.183,0.173,0,
2019-07-21 15:32:49.407161,0.244,0.169,0.169,0,
2019-07-21 15:32:49.506990,0.234,0.173,0.187,0,
2019-07-21 15:32:49.607141,0.272,0.159,0.164,0,
2019-07-21 15:32:49.707829,0.206,0.131,0.192,0,
2019-07-21 15:32:49.806732,0.211,0.145,0.178,0,
2019-07-21 15:32:49.906987,0.267,0.173,0.192,0,
2019-07-21 15:32:50.007121,0.22,0.169,0.173,0,
2019-07-21 15:32:50.106812,0.234,0.187,0,0,
2019-07-21 15:32:50.207003,0.225,0.154,0,0,
2019-07-21 15:32:50.307185,0.258,0.173,0.201,0,
2019-07-21 15:32:50.407192,0.248,0.192,0.192,0,
2019-07-21 15:32:50.506610,0.206,0.145,0.187,0,
2019-07-21 15:32:50.606669,0.267,0.159,0.206,0,
2019-07-21 15:32:50.707037,0.173,0.126,0.211,0,
2019-07-21 15:32:50.811048,0.276,0.164,0.187,0,
2019-07-21 15:32:50.907202,0.225,0.15,0.192,0,
2019-07-21 15:32:51.006782,0.23,0.169,0.183,0,
2019-07-21 15:32:51.107034,0.201,0.173,0.197,0,
2019-07-21 15:32:51.207019,0.22,0.117,0.178,0,
2019-07-21 15:32:51.306836,0.267,0.164,0.178,0,
2019-07-21 15:32:51.407125,0.234,0.178,0.201,0,
2019-07-21 15:32:51.506829,0.267,0.122,0.169,0,
2019-07-21 15:32:51.606776,0.281,0.183,0.215,0,
2019-07-21 15:32:51.706636,0.23,0.15,0.178,0,
2019-07-21 15:32:51.806970,0.239,0.154,0.159,0,
2019-07-21 15:32:51.907117,0.22,0.169,0.178,0,
2019-07-21 15:32:52.005547,0.169,0.136,0.211,0,
2019-07-21 15:32:52.106815,0.244,0.136,0.164,0,
2019-07-21 15:32:52.207554,0.239,0.206,0.173,0,
2019-07-21 15:32:52.306665,0.276,0.154,0.164,0,
2019-07-21 15:32:52.407171,0.248,0.159,0.197,0,
2019-07-21 15:32:52.507835,0,0.169,0.197,0,
2019-07-21 15:32:52.708105,0.253,0.145,0.178,0,
2019-07-21 15:32:52.809315,0,0.14,0,0,
2019-07-21 15:32:52.906900,0.211,0.145,0.201,0,
2019-07-21 15:32:53.006970,0.248,0.154,0.173,0,
2019-07-21 15:32:53.107160,0.234,0.169,0.192,0,
2019-07-21 15:32:53.207270,0.253,0.164,0.178,0,
2019-07-21 15:32:53.307877,0.197,0.136,0.192,0,
2019-07-21 15:32:53.407209,0.253,0.159,0.178,0,
2019-07-21 15:32:53.506661,0.281,0.169,0.192,0,
2019-07-21 15:32:53.606884,0.258,0.173,0.197,0,
2019-07-21 15:32:53.707001,0.211,0.14,0.169,0,
2019-07-21 15:32:53.806965,0.234,0.154,0.178,0,
2019-07-21 15:32:53.907183,0.239,0.154,0,0,
2019-07-21 15:32:54.006802,0.253,0.187,0,0,
2019-07-21 15:32:54.107350,0.197,0.173,0.197,0,
2019-07-21 15:32:54.206899,0.239,0.159,0.169,0,
2019-07-21 15:32:54.306782,0.272,0.173,0.173,0,
2019-07-21 15:32:54.406589,0.276,0.169,0.173,0,
2019-07-21 15:32:54.506607,0.23,0.173,0.192,0,
2019-07-21 15:32:54.607062,0.276,0.131,0.178,0,
2019-07-21 15:32:54.707500,0.23,0.126,0.169,0,
2019-07-21 15:32:54.807108,0.286,0.15,0.187,0,
2019-07-21 15:32:54.911009,0.23,0.187,0.206,0,
2019-07-21 15:32:55.006848,0.211,0.187,0.159,0,
2019-07-21 15:32:55.107177,0.23,0.136,0.178,0,
2019-07-21 15:32:55.206715,0.23,0.14,0.183,0,
2019-07-21 15:32:55.306859,0.253,0.136,0.169,0,
2019-07-21 15:32:55.406908,0.239,0.14,0.169,0,
2019-07-21 15:32:55.506619,0.29,0.145,0.169,0,
2019-07-21 15:32:55.608657,0,0.117,0,0,
2019-07-21 15:32:55.703570,0.197,0.178,0.173,0,
2019-07-21 15:32:55.807076,0.23,0.164,0.154,0,
2019-07-21 15:32:55.907258,0.272,0.164,0.183,0,
2019-07-21 15:32:56.007365,0.239,0.178,0.187,0,
2019-07-21 15:32:56.107312,0.23,0.183,0.206,0,
2019-07-21 15:32:56.207564,0.262,0.164,0.183,0,
2019-07-21 15:32:56.306766,0,0.131,0.169,0,
2019-07-21 15:32:56.507162,0.248,0.178,0.173,0,
2019-07-21 15:32:56.606840,0.262,0.183,0.154,0,
2019-07-21 15:32:56.707374,0.201,0.178,0.173,0,
2019-07-21 15:32:56.806896,0.15,0.15,0.201,0,
2019-07-21 15:32:56.908896,0,0.117,0,0,
2019-07-21 15:32:57.007301,0.244,0.173,0.173,0,
2019-07-21 15:32:57.106885,0.173,0.159,0.178,0,
2019-07-21 15:32:57.207137,0.253,0.14,0.169,0,
2019-07-21 15:32:57.307285,0.244,0,0.201,0,
2019-07-21 15:32:57.407263,0.211,0,0.173,0,
2019-07-21 15:32:57.507394,0.22,0.154,0.164,0,
2019-07-21 15:32:57.607060,0.272,0.14,0.201,0,
2019-07-21 15:32:57.707265,0.22,0.154,0.22,0,
2019-07-21 15:32:57.806666,0.248,0.178,0.178,0,
2019-07-21 15:32:57.906986,0.253,0.173,0,0,
2019-07-21 15:32:58.006958,0.23,0.108,0,0,
2019-07-21 15:32:58.107458,0.225,0.187,0.201,0,
2019-07-21 15:32:58.207327,0.206,0.108,0.211,0,
2019-07-21 15:32:58.307339,0.267,0.154,0.178,0,
2019-07-21 15:32:58.406924,0.239,0.187,0.201,0,
2019-07-21 15:32:58.508285,0.206,0.136,0.197,0,
2019-07-21 15:32:58.607251,0.211,0.159,0.178,0,
2019-07-21 15:32:58.705620,0.239,0.145,0.187,0,
2019-07-21 15:32:58.806749,0.244,0.187,0.178,0,
2019-07-21 15:32:58.906908,0.286,0.164,0.183,0,
2019-07-21 15:32:59.009204,0.248,0.122,0.159,0,
2019-07-21 15:32:59.107115,0.197,0.164,0.178,0,
2019-07-21 15:32:59.206908,0.258,0.159,0.169,0,
2019-07-21 15:32:59.306854,0.244,0.178,0.178,0,
2019-07-21 15:32:59.407317,0.295,0.197,0.173,0,
2019-07-21 15:32:59.506753,0.201,0.15,0.178,0,
2019-07-21 15:32:59.607450,0.173,0.15,0.164,0,
2019-07-21 15:32:59.706837,0.281,0.15,0.183,0,
2019-07-21 15:32:59.807250,0.201,0.145,0.187,0,
2019-07-21 15:32:59.906724,0.234,0.154,0.183,0,
2019-07-21 15:33:00.006846,0.244,0.154,0.178,0,
2019-07-21 15:33:00.107316,0.276,0.164,0.178,0,
2019-07-21 15:33:00.206782,0.244,0.169,0.173,0,
2019-07-21 15:33:00.307120,0.239,0.192,0.173,0,
2019-07-21 15:33:00.407302,0.211,0.15,0.173,0,
2019-07-21 15:33:00.507508,0.286,0.131,0.197,0,
2019-07-21 15:33:00.606891,0.276,0.136,0.187,0,
2019-07-21 15:33:00.707062,0.276,0.112,0.211,0,
2019-07-21 15:33:00.806797,0.239,0.187,0.164,0,
2019-07-21 15:33:00.906758,0.244,0.154,0.173,0,
2019-07-21 15:33:01.006725,0.197,0.164,0.183,0,
2019-07-21 15:33:01.109315,0.272,0.15,0.183,0,
2019-07-21 15:33:01.206854,0.267,0,0.178,0,
2019-07-21 15:33:01.307205,0.248,0,0.187,0,
2019-07-21 15:33:01.406879,0.253,0.15,0.169,0,
2019-07-21 15:33:01.505233,0,0.131,0.197,0,
2019-07-21 15:33:01.708962,0,0.164,0,0,
2019-07-21 15:33:01.802981,0.206,0.15,0.211,0,
2019-07-21 15:33:01.907237,0.258,0.164,0.197,0,
2019-07-21 15:33:02.006912,0.267,0.154,0.187,0,
2019-07-21 15:33:02.106814,0.248,0.173,0.187,0,
2019-07-21 15:33:02.207024,0.286,0.159,0.183,0,
2019-07-21 15:33:02.308847,0,0.192,0,0,
2019-07-21 15:33:02.403270,0.272,0.164,0.159,0,
2019-07-21 15:33:02.506811,0.23,0.154,0.178,0,
2019-07-21 15:33:02.607242,0.239,0.201,0.197,0,
2019-07-21 15:33:02.707583,0.23,0.178,0.183,0,
2019-07-21 15:33:02.806909,0.201,0.169,0.173,0,
2019-07-21 15:33:02.907728,0.262,0.15,0.187,0,
2019-07-21 15:33:03.008157,0.272,0.14,0.206,0,
2019-07-21 15:33:03.107060,0.272,0.154,0.206,0,
2019-07-21 15:33:03.209156,0.258,0.159,0.183,0,
2019-07-21 15:33:03.307462,0.253,0.154,0.164,0,
2019-07-21 15:33:03.409364,0,0.178,0,0,
2019-07-21 15:33:03.503065,0.187,0.14,0,0,
2019-07-21 15:33:03.607053,0.211,0.154,0.187,0,
2019-07-21 15:33:03.706272,0.187,0.14,0.187,0,
2019-07-21 15:33:03.807425,0.206,0.178,0.192,0,
2019-07-21 15:33:03.907379,0.215,0.169,0.197,0,
2019-07-21 15:33:04.006895,0.267,0.154,0.169,0,
2019-07-21 15:33:04.106847,0.262,0.173,0.187,0,
2019-07-21 15:33:04.206876,0.211,0.183,0.183,0,
2019-07-21 15:33:04.307328,0.192,0.136,0,0,
2019-07-21 15:33:04.405183,0.244,0.169,0,0,
2019-07-21 15:33:04.506976,0.258,0.173,0.169,0,
2019-07-21 15:33:04.605298,0.23,0.159,0.215,0,
2019-07-21 15:33:04.705132,0.276,0.145,0.197,0,
2019-07-21 15:33:04.808690,0,0.178,0,0,
2019-07-21 15:33:04.903027,0.253,0.164,0.173,0,
2019-07-21 15:33:05.007409,0.244,0.15,0.183,0,
2019-07-21 15:33:05.104908,0.244,0.206,0.197,0,
2019-07-21 15:33:05.205433,0.253,0.131,0.187,0,
2019-07-21 15:33:05.309738,0.225,0.192,0.178,0,
2019-07-21 15:33:05.407190,0.206,0.131,0.206,0,
2019-07-21 15:33:05.505333,0.276,0,0.183,0,
2019-07-21 15:33:05.605412,0.276,0.154,0.173,0,
2019-07-21 15:33:05.707201,0.244,0.117,0.183,0,
2019-07-21 15:33:05.807341,0.23,0.112,0.173,0,
2019-07-21 15:33:05.906586,0.239,0.183,0.187,0,
2019-07-21 15:33:06.007437,0.234,0.187,0.187,0,
2019-07-21 15:33:06.105150,0.258,0.131,0.187,0,
2019-07-21 15:33:06.205097,0.281,0.178,0.183,0,
2019-07-21 15:33:06.305463,0.248,0.126,0.164,0,
2019-07-21 15:33:06.405488,0.215,0.126,0.206,0,
2019-07-21 15:33:06.507262,0.286,0.15,0.22,0,
2019-07-21 15:33:06.607037,0.234,0.169,0.192,0,
2019-07-21 15:33:06.705559,0.272,0.15,0.169,0,
2019-07-21 15:33:06.805133,0.272,0.201,0.187,0,
2019-07-21 15:33:06.905155,0.187,0.169,0.169,0,
2019-07-21 15:33:07.005304,0.215,0.131,0.173,0,
2019-07-21 15:33:07.105063,0.159,0.173,0.173,0,
2019-07-21 15:33:07.204948,0.183,0.164,0.159,0,
2019-07-21 15:33:07.305204,0.248,0.173,0.173,0,
2019-07-21 15:33:07.409263,0.253,0.126,0.187,0,
2019-07-21 15:33:07.507556,0.248,0.173,0.197,0,
2019-07-21 15:33:07.606924,0.272,0.154,0.201,0,
2019-07-21 15:33:07.707034,0.281,0.145,0.164,0,
2019-07-21 15:33:07.803780,0.215,0.164,0.183,0,
2019-07-21 15:33:07.905211,0.281,0.173,0.192,0,
2019-07-21 15:33:08.006968,0.187,0.187,0.197,0,
2019-07-21 15:33:08.105028,0.211,0.145,0.169,0,
2019-07-21 15:33:08.205293,0.211,0.15,0.183,0,
2019-07-21 15:33:08.304929,0.276,0.122,0.173,0,
2019-07-21 15:33:08.405437,0.225,0.15,0.183,0,
2019-07-21 15:33:08.505067,0.197,0.145,0.154,0,
2019-07-21 15:33:08.604937,0.215,0.131,0.183,0,
2019-07-21 15:33:08.705420,0.234,0.206,0.183,0,
2019-07-21 15:33:08.804901,0.258,0.187,0.211,0,
2019-07-21 15:33:08.905339,0.23,0.145,0.183,0,
2019-07-21 15:33:09.004918,0.234,0.154,0.211,0,
2019-07-21 15:33:09.104946,0.234,0.154,0.201,0,
2019-07-21 15:33:09.205668,0.234,0.145,0.178,0,
2019-07-21 15:33:09.305168,0.267,0.192,0.192,0,
2019-07-21 15:33:09.405216,0.239,0.154,0.178,0,
2019-07-21 15:33:09.509712,0.211,0.169,0.159,0,
2019-07-21 15:33:09.604983,0.248,0.169,0.178,0,
2019-07-21 15:33:09.705127,0.29,0.178,0.178,0,
2019-07-21 15:33:09.804925,0.258,0.164,0.192,0,
2019-07-21 15:33:09.906249,0.211,0.169,0.192,0,
2019-07-21 15:33:10.005069,0.248,0.131,0.192,0,
2019-07-21 15:33:10.104914,0.262,0.192,0.183,0,
2019-07-21 15:33:10.204851,0.267,0.14,0.173,0,
2019-07-21 15:33:10.304976,0.258,0.154,0.169,0,
2019-07-21 15:33:10.405415,0.286,0.178,0.192,0,
2019-07-21 15:33:10.505379,0.258,0.164,0.187,0,
2019-07-21 15:33:10.605447,0.272,0.15,0.159,0,
2019-07-21 15:33:10.705455,0.215,0.136,0.187,0,
2019-07-21 15:33:10.805124,0.262,0.154,0.169,0,
2019-07-21 15:33:10.905526,0.276,0.117,0.183,0,
2019-07-21 15:33:11.005522,0.183,0.164,0.192,0,
2019-07-21 15:33:11.104932,0.286,0.192,0.178,0,
2019-07-21 15:33:11.205295,0.258,0.145,0.206,0,
2019-07-21 15:33:11.305215,0.267,0.15,0.201,0,
2019-07-21 15:33:11.405544,0.234,0.169,0.178,0,
2019-07-21 15:33:11.505477,0.262,0.169,0.173,0,
2019-07-21 15:33:11.609260,0.192,0.173,0.169,0,
2019-07-21 15:33:11.704535,0.239,0.173,0.173,0,
2019-07-21 15:33:11.804942,0.192,0.15,0.178,0,
2019-07-21 15:33:11.905004,0.215,0.178,0.206,0,
2019-07-21 15:33:12.004611,0.23,0.173,0.187,0,
2019-07-21 15:33:12.105003,0.272,0.178,0.192,0,
2019-07-21 15:33:12.205560,0.3,0.173,0.201,0,
2019-07-21 15:33:12.305591,0.267,0.178,0.183,0,
2019-07-21 15:33:12.405021,0.286,0.145,0.211,0,
2019-07-21 15:33:12.505324,0.267,0.173,0.197,0,
2019-07-21 15:33:12.605073,0.272,0.15,0.187,0,
2019-07-21 15:33:12.707810,0.244,0.159,0.173,0,
2019-07-21 15:33:12.805243,0.3,0.154,0.178,0,
2019-07-21 15:33:12.905359,0.267,0.122,0.183,0,
2019-07-21 15:33:13.005568,0.239,0.169,0.173,0,
2019-07-21 15:33:13.105181,0.23,0.15,0.164,0,
2019-07-21 15:33:13.205471,0.272,0,0.187,0,
2019-07-21 15:33:13.305665,0.276,0.159,0.169,0,
2019-07-21 15:33:13.405513,0.211,0.15,0.173,0,
2019-07-21 15:33:13.505301,0.215,0.169,0.159,0,
2019-07-21 15:33:13.606144,0.22,0.126,0.178,0,
2019-07-21 15:33:13.709249,0.272,0.173,0.197,0,
2019-07-21 15:33:13.803789,0.206,0.159,0.192,0,
2019-07-21 15:33:13.903900,0.215,0.183,0.183,0,
2019-07-21 15:33:14.005384,0.248,0.169,0.178,0,
2019-07-21 15:33:14.105214,0.276,0.169,0.173,0,
2019-07-21 15:33:14.205441,0.244,0.169,0.187,0,
2019-07-21 15:33:14.305941,0.23,0.201,0.178,0,
2019-07-21 15:33:14.405465,0.234,0.154,0.169,0,
2019-07-21 15:33:14.505100,0.244,0.15,0.164,0,
2019-07-21 15:33:14.605577,0.192,0.14,0.178,0,
2019-07-21 15:33:14.705280,0.23,0.197,0.183,0,
2019-07-21 15:33:14.805056,0.197,0.183,0.178,0,
2019-07-21 15:33:14.905832,0.225,0.178,0.187,0,
2019-07-21 15:33:15.009627,0,0.178,0,0,
2019-07-21 15:33:15.103634,0.248,0.173,0.187,0,
2019-07-21 15:33:15.205617,0.276,0.178,0.197,0,
2019-07-21 15:33:15.305147,0.23,0.178,0.173,0,
2019-07-21 15:33:15.405644,0.262,0.173,0.211,0,
2019-07-21 15:33:15.505601,0.267,0.183,0.187,0,
2019-07-21 15:33:15.605159,0.253,0.173,0.173,0,
2019-07-21 15:33:15.705608,0.239,0.169,0.178,0,
2019-07-21 15:33:15.809442,0.272,0.192,0.192,0,
2019-07-21 15:33:15.905387,0.267,0.14,0.197,0,
2019-07-21 15:33:16.005401,0.276,0.154,0.169,0,
2019-07-21 15:33:16.105100,0.29,0.15,0.178,0,
2019-07-21 15:33:16.205486,0.23,0.154,0.173,0,
2019-07-21 15:33:16.305859,0.215,0.183,0.159,0,
2019-07-21 15:33:16.405152,0.286,0.145,0.183,0,
2019-07-21 15:33:16.505712,0.295,0.169,0.192,0,
2019-07-21 15:33:16.605582,0.29,0.15,0.164,0,
2019-07-21 15:33:16.705822,0.23,0.197,0.164,0,
2019-07-21 15:33:16.804845,0.272,0.15,0.187,0,
2019-07-21 15:33:16.905328,0.225,0.169,0.173,0,
2019-07-21 15:33:17.005625,0.258,0.164,0.206,0,
2019-07-21 15:33:17.106045,0.206,0.169,0.178,0,
2019-07-21 15:33:17.205515,0.29,0.14,0.178,0,
2019-07-21 15:33:17.305190,0.272,0.126,0.183,0,
2019-07-21 15:33:17.405246,0.258,0.131,0.192,0,
2019-07-21 15:33:17.505425,0.276,0.173,0.173,0,
2019-07-21 15:33:17.605102,0.248,0.183,0.183,0,
2019-07-21 15:33:17.705544,0.225,0.192,0.192,0,
2019-07-21 15:33:17.805489,0.272,0.187,0.169,0,
2019-07-21 15:33:17.909395,0.267,0.169,0.164,0,
2019-07-21 15:33:18.005430,0.239,0.145,0.173,0,
2019-07-21 15:33:18.105642,0.258,0.192,0.178,0,
2019-07-21 15:33:18.205185,0,0.173,0.169,0,
2019-07-21 15:33:18.305838,0.23,0.169,0.173,0,
2019-07-21 15:33:18.405720,0.267,0.201,0.173,0,
2019-07-21 15:33:18.505302,0.262,0.169,0.192,0,
2019-07-21 15:33:18.605605,0.239,0.173,0.178,0,
2019-07-21 15:33:18.705429,0.281,0.183,0.192,0,
2019-07-21 15:33:18.805287,0.253,0.131,0.173,0,
2019-07-21 15:33:18.909138,0,0.14,0,0,
2019-07-21 15:33:19.004080,0.267,0.169,0.206,0,
2019-07-21 15:33:19.105722,0.258,0.131,0,0,
2019-07-21 15:33:19.205243,0.258,0.169,0.169,0,
2019-07-21 15:33:19.305266,0.272,0.131,0.178,0,
2019-07-21 15:33:19.405423,0.258,0.206,0.169,0,
2019-07-21 15:33:19.505692,0.248,0.122,0.183,0,
2019-07-21 15:33:19.605483,0.239,0.22,0.187,0,
2019-07-21 15:33:19.705280,0.197,0.112,0.187,0,
2019-07-21 15:33:19.806052,0.272,0.197,0.169,0,
2019-07-21 15:33:19.905603,0.253,0.15,0.197,0,
2019-07-21 15:33:20.009360,0.192,0.112,0.169,0,
2019-07-21 15:33:20.105979,0.267,0.131,0.178,0,
2019-07-21 15:33:20.205818,0.225,0.14,0.169,0,
2019-07-21 15:33:20.306196,0.206,0.154,0.197,0,
2019-07-21 15:33:20.405772,0.197,0.201,0.183,0,
2019-07-21 15:33:20.505726,0.262,0.197,0.22,0,
2019-07-21 15:33:20.609528,0,0.15,0,0,
2019-07-21 15:33:20.703752,0.276,0.178,0.164,0,
2019-07-21 15:33:20.805693,0.267,0.136,0.22,0,
2019-07-21 15:33:20.905965,0.239,0.187,0.169,0,
2019-07-21 15:33:21.005728,0.206,0.169,0,0,
2019-07-21 15:33:21.105696,0.244,0.15,0.201,0,
2019-07-21 15:33:21.205229,0.267,0.169,0.206,0,
2019-07-21 15:33:21.305772,0.258,0.169,0.169,0,
2019-07-21 15:33:21.405600,0.23,0.178,0.173,0,
2019-07-21 15:33:21.505240,0.234,0.145,0.183,0,
2019-07-21 15:33:21.605681,0.272,0.154,0.183,0,
2019-07-21 15:33:21.706038,0.244,0.159,0.192,0,
2019-07-21 15:33:21.805782,0.258,0.136,0.197,0,
2019-07-21 15:33:21.906004,0.286,0.159,0.201,0,
2019-07-21 15:33:22.004983,0.295,0.173,0,0,
2019-07-21 15:33:22.109414,0.244,0.159,0.173,0,
2019-07-21 15:33:22.205544,0.239,0.117,0.183,0,
2019-07-21 15:33:22.305611,0.159,0.178,0.183,0,
2019-07-21 15:33:22.405325,0.225,0.131,0.178,0,
2019-07-21 15:33:22.505736,0.295,0.201,0.206,0,
2019-07-21 15:33:22.605621,0.258,0.164,0.178,0,
2019-07-21 15:33:22.705477,0.253,0.197,0,0,
2019-07-21 15:33:22.805605,0.248,0.169,0,0,
2019-07-21 15:33:22.905499,0.244,0.169,0.173,0,
2019-07-21 15:33:23.005646,0.244,0.122,0.183,0,
2019-07-21 15:33:23.105770,0.211,0.154,0.159,0,
2019-07-21 15:33:23.205269,0.272,0,0,0,
2019-07-21 15:33:23.305747,0.253,0.14,0.159,0,
2019-07-21 15:33:23.405766,0.281,0.169,0.201,0,
2019-07-21 15:33:23.505289,0.272,0.192,0.211,0,
2019-07-21 15:33:23.605467,0.286,0.169,0.183,0,
2019-07-21 15:33:23.705374,0.267,0.159,0.183,0,
2019-07-21 15:33:23.805799,0.262,0,0.206,0,
2019-07-21 15:33:23.905263,0.258,0.136,0.173,0,
2019-07-21 15:33:24.005461,0.276,0.192,0.183,0,
2019-07-21 15:33:24.105472,0.267,0.164,0.178,0,
2019-07-21 15:33:24.210964,0.267,0.169,0.178,0,
2019-07-21 15:33:24.305582,0.239,0.15,0.192,0,
2019-07-21 15:33:24.405662,0.29,0.14,0.183,0,
2019-07-21 15:33:24.505828,0.244,0.14,0.211,0,
2019-07-21 15:33:24.605747,0.267,0.159,0.178,0,
2019-07-21 15:33:24.705773,0.281,0.164,0.178,0,
2019-07-21 15:33:24.805750,0.262,0.164,0.197,0,
2019-07-21 15:33:24.905768,0.272,0.183,0,0,
2019-07-21 15:33:25.005351,0.272,0.173,0,0,
2019-07-21 15:33:25.105704,0.248,0.201,0.183,0,
2019-07-21 15:33:25.205866,0.262,0.169,0.183,0,
2019-07-21 15:33:25.305360,0.272,0.145,0.169,0,
2019-07-21 15:33:25.405568,0.272,0.187,0.197,0,
2019-07-21 15:33:25.505301,0.276,0.159,0.206,0,
2019-07-21 15:33:25.605829,0.215,0.178,0.173,0,
2019-07-21 15:33:25.705863,0.244,0.154,0.183,0,
2019-07-21 15:33:25.805568,0.197,0.173,0.178,0,
2019-07-21 15:33:25.905957,0.248,0.173,0.173,0,
2019-07-21 15:33:26.005781,0.258,0.14,0.183,0,
2019-07-21 15:33:26.105374,0.178,0.145,0.197,0,
2019-07-21 15:33:26.206060,0.192,0.183,0.173,0,
2019-07-21 15:33:26.310298,0.253,0.159,0.178,0,
2019-07-21 15:33:26.406003,0.23,0.159,0.15,0,
2019-07-21 15:33:26.505463,0.248,0.164,0.187,0,
2019-07-21 15:33:26.605995,0.305,0.164,0.197,0,
2019-07-21 15:33:26.705438,0.286,0.164,0.183,0,
2019-07-21 15:33:26.805863,0.253,0.145,0.211,0,
2019-07-21 15:33:26.905861,0.244,0.154,0.211,0,
2019-07-21 15:33:27.005728,0.23,0,0.192,0,
2019-07-21 15:33:27.105774,0.258,0.14,0.159,0,
2019-07-21 15:33:27.205573,0.272,0.169,0.192,0,
2019-07-21 15:33:27.305726,0.248,0.173,0.173,0,
2019-07-21 15:33:27.406117,0.253,0.14,0.192,0,
2019-07-21 15:33:27.505846,0.206,0.145,0.192,0,
2019-07-21 15:33:27.605412,0.286,0.169,0.173,0,
2019-07-21 15:33:27.706007,0.262,0.145,0.178,0,
2019-07-21 15:33:27.805870,0.215,0.14,0.211,0,
2019-07-21 15:33:27.905385,0.272,0.159,0.173,0,
2019-07-21 15:33:28.005739,0.225,0,0.159,0,
2019-07-21 15:33:28.104924,0.262,0.15,0.173,0,
2019-07-21 15:33:28.205526,0.258,0,0.183,0,
2019-07-21 15:33:28.305732,0.262,0,0.173,0,
2019-07-21 15:33:28.410338,0.211,0.173,0.206,0,
2019-07-21 15:33:28.505791,0.258,0.178,0.192,0,
2019-07-21 15:33:28.605586,0,0.131,0.183,0,
2019-07-21 15:33:28.805792,0.258,0.178,0.178,0,
2019-07-21 15:33:28.905671,0.239,0.136,0.169,0,
2019-07-21 15:33:29.005751,0.262,0.136,0.169,0,
2019-07-21 15:33:29.107594,0,0.145,0,0,
2019-07-21 15:33:29.204155,0.211,0.15,0.169,0,
2019-07-21 15:33:29.305746,0.244,0.136,0.173,0,
2019-07-21 15:33:29.405659,0.248,0.159,0.183,0,
2019-07-21 15:33:29.505751,0.258,0.192,0.178,0,
2019-07-21 15:33:29.605945,0.244,0.159,0.169,0,
2019-07-21 15:33:29.705616,0.267,0,0.201,0,
2019-07-21 15:33:29.805833,0,0.122,0.192,0,
2019-07-21 15:33:30.007366,0,0.159,0,0,
2019-07-21 15:33:30.103965,0.276,0.154,0.154,0,
2019-07-21 15:33:30.205722,0.272,0.169,0.169,0,
2019-07-21 15:33:30.305449,0.258,0.154,0.178,0,
2019-07-21 15:33:30.405718,0.253,0.14,0.187,0,
2019-07-21 15:33:30.509467,0.244,0.15,0.178,0,
2019-07-21 15:33:30.605540,0.215,0.187,0.173,0,
2019-07-21 15:33:30.705826,0.22,0.178,0.183,0,
2019-07-21 15:33:30.805417,0.253,0.173,0.178,0,
2019-07-21 15:33:30.904703,0.258,0.145,0.187,0,
2019-07-21 15:33:31.005863,0.267,0.164,0.178,0,
2019-07-21 15:33:31.105507,0.29,0.173,0.201,0,
2019-07-21 15:33:31.205420,0.248,0.15,0.206,0,
2019-07-21 15:33:31.305679,0.22,0.187,0.178,0,
2019-07-21 15:33:31.405228,0,0.154,0.183,0,
2019-07-21 15:33:31.605797,0.23,0.15,0.192,0,
2019-07-21 15:33:31.706075,0.286,0.154,0.178,0,
2019-07-21 15:33:31.806032,0.276,0.14,0.183,0,
2019-07-21 15:33:31.905444,0.276,0.145,0.178,0,
2019-07-21 15:33:32.005394,0.281,0.154,0.173,0,
2019-07-21 15:33:32.105623,0.276,0.154,0.169,0,
2019-07-21 15:33:32.205486,0.262,0.178,0.201,0,
2019-07-21 15:33:32.305873,0.272,0.164,0.159,0,
2019-07-21 15:33:32.406007,0.281,0.154,0.187,0,
2019-07-21 15:33:32.505830,0.244,0.173,0,0,
2019-07-21 15:33:32.610129,0.253,0.169,0,0,
2019-07-21 15:33:32.705577,0.239,0.117,0.164,0,
2019-07-21 15:33:32.805615,0.262,0.187,0.178,0,
2019-07-21 15:33:32.905595,0.248,0.187,0,0,
2019-07-21 15:33:33.006360,0.248,0.159,0.183,0,
2019-07-21 15:33:33.108343,0,0.159,0,0,
2019-07-21 15:33:33.201763,0.225,0.15,0.169,0,
2019-07-21 15:33:33.305838,0.272,0.183,0.159,0,
2019-07-21 15:33:33.406176,0.267,0.164,0.178,0,
2019-07-21 15:33:33.506046,0.272,0,0.173,0,
2019-07-21 15:33:33.605467,0.23,0.126,0.187,0,
